{
	"parent": "block/cube_bottom_top",
    "textures": {
        "side": "tardis:blocks/roundels/roundel_chiselled_quartz_block",
        "top":"tardis:blocks/roundels/roundel_chiselled_quartz_block_top",
        "bottom":"tardis:blocks/roundels/roundel_chiselled_quartz_block_top"
    }
}