{
    "parent": "block/outer_stairs",
    "textures": {
        "bottom": "tardis:blocks/technology/tech_wall_dark_blank",
        "top": "tardis:blocks/technology/tech_wall_dark_blank",
        "side": "tardis:blocks/technology/tech_wall_dark_blank"
    }
}
