{
    "variants": {
        "type=bottom": { "model": "tardis:block/tech_floor_dark_pattern_slab" },
      "type=top": { "model": "tardis:block/tech_floor_dark_pattern_slab_top" },
      "type=double": { "model": "tardis:block/tech_floor_dark_pattern" }
    }
}