{
	"credit": "Made with Blockbench by 50ap5ud5",
	"textures": {
		"0": "tardis:item/vm",
		"particle": "tardis:item/vm"
	},
	"elements": [
		{
			"from": [4, 0, 4],
			"to": [12, 0.5, 13.5],
			"faces": {
				"north": {"uv": [0.25, 1.25, 0.375, 1.75], "texture": "#0"},
				"east": {"uv": [2.25, 1.75, 3.75, 2.25], "texture": "#0"},
				"south": {"uv": [0.25, 1.25, 0.5, 1.75], "texture": "#0"},
				"west": {"uv": [2.25, 1.5, 3.75, 3.5], "texture": "#0"},
				"up": {"uv": [2.5, 1.25, 3.5, 3.75], "texture": "#0"},
				"down": {"uv": [0.5, 1.25, 1.5, 3.75], "texture": "#0"}
			}
		},
		{
			"name": "surround",
			"from": [5.25, 0.5, 7],
			"to": [5.875, 1.25, 10.625],
			"faces": {
				"north": {"uv": [0, 0, 0.625, 0.75], "texture": "#0"},
				"east": {"uv": [1, 0, 2.875, 0.75], "texture": "#0"},
				"south": {"uv": [0, 0, 0.625, 0.75], "texture": "#0"},
				"west": {"uv": [0.5, 1.5, 1.625, 2.25], "texture": "#0"},
				"up": {"uv": [0.75, 1, 1.375, 3.875], "texture": "#0"},
				"down": {"uv": [0.75, 1, 1.375, 3.875], "texture": "#0"}
			}
		},
		{
			"name": "surround",
			"from": [5.5, 0.5, 10.5],
			"to": [6, 1.25, 12.3125],
			"faces": {
				"north": {"uv": [0, 0, 0.5, 0.75], "texture": "#0"},
				"east": {"uv": [1, 0, 2.875, 0.75], "texture": "#0"},
				"south": {"uv": [0, 0, 0.5, 0.75], "texture": "#0"},
				"west": {"uv": [0.5, 1.5, 1.625, 2.25], "texture": "#0"},
				"up": {"uv": [0.75, 1, 1.375, 3.875], "texture": "#0"},
				"down": {"uv": [0.75, 1, 1.375, 3.875], "texture": "#0"}
			}
		},
		{
			"name": "surround",
			"from": [5.5, 0.5, 5.25],
			"to": [6, 1.25, 7.0625],
			"faces": {
				"north": {"uv": [0, 0, 0.5, 0.75], "texture": "#0"},
				"east": {"uv": [1, 0, 2.875, 0.75], "texture": "#0"},
				"south": {"uv": [0, 0, 0.5, 0.75], "texture": "#0"},
				"west": {"uv": [0.5, 1.5, 1.625, 2.25], "texture": "#0"},
				"up": {"uv": [0.75, 1, 1.375, 3.875], "texture": "#0"},
				"down": {"uv": [0.75, 1, 1.375, 3.875], "texture": "#0"}
			}
		},
		{
			"name": "surround",
			"from": [5.6375, 0.5, 5],
			"to": [6.95, 1.25, 5.5],
			"faces": {
				"north": {"uv": [0, 0, 0.563, 0.75], "texture": "#0"},
				"east": {"uv": [0, 0, 0.5, 0.75], "texture": "#0"},
				"south": {"uv": [1.25, 0, 2.563, 0.75], "texture": "#0"},
				"west": {"uv": [0, 0, 0.5, 0.75], "texture": "#0"},
				"up": {"uv": [0.75, 1.75, 1.563, 2.25], "texture": "#0"},
				"down": {"uv": [0.5, 2, 1.563, 2.5], "texture": "#0"}
			}
		},
		{
			"name": "surround",
			"from": [6.8375, 0.5, 4.75],
			"to": [9.2125, 1.25, 5.25],
			"faces": {
				"north": {"uv": [0, 0, 0.563, 0.75], "texture": "#0"},
				"east": {"uv": [0, 0, 0.5, 0.75], "texture": "#0"},
				"south": {"uv": [1.25, 0, 2.563, 0.75], "texture": "#0"},
				"west": {"uv": [0, 0, 0.5, 0.75], "texture": "#0"},
				"up": {"uv": [0.75, 1.75, 1.563, 2.25], "texture": "#0"},
				"down": {"uv": [0.5, 2, 1.563, 2.5], "texture": "#0"}
			}
		},
		{
			"name": "surround",
			"from": [9.1, 0.5, 5],
			"to": [10.4125, 1.25, 5.5],
			"faces": {
				"north": {"uv": [0, 0, 0.563, 0.75], "texture": "#0"},
				"east": {"uv": [0, 0, 0.5, 0.75], "texture": "#0"},
				"south": {"uv": [1.25, 0, 2.563, 0.75], "texture": "#0"},
				"west": {"uv": [0, 0, 0.5, 0.75], "texture": "#0"},
				"up": {"uv": [0.75, 1.75, 1.563, 2.25], "texture": "#0"},
				"down": {"uv": [0.5, 2, 1.563, 2.5], "texture": "#0"}
			}
		},
		{
			"name": "surround",
			"from": [10, 0.5, 5.25],
			"to": [10.5, 1.25, 7.0625],
			"faces": {
				"north": {"uv": [0, 0, 0.5, 0.75], "texture": "#0"},
				"east": {"uv": [0.5, 1.25, 1.563, 2], "texture": "#0"},
				"south": {"uv": [0, 0, 0.5, 0.75], "texture": "#0"},
				"west": {"uv": [1, 0, 2.813, 0.75], "texture": "#0"},
				"up": {"uv": [0, 0, 0.5, 1.063], "texture": "#0"},
				"down": {"uv": [0, 0, 0.5, 1.063], "texture": "#0"}
			}
		},
		{
			"name": "surround",
			"from": [10, 0.5, 10.5],
			"to": [10.5, 1.25, 12.3125],
			"faces": {
				"north": {"uv": [0, 0, 0.5, 0.75], "texture": "#0"},
				"east": {"uv": [0.5, 1.25, 1.563, 2], "texture": "#0"},
				"south": {"uv": [0, 0, 0.5, 0.75], "texture": "#0"},
				"west": {"uv": [1, 0, 2.813, 0.75], "texture": "#0"},
				"up": {"uv": [0, 0, 0.5, 1.063], "texture": "#0"},
				"down": {"uv": [0, 0, 0.5, 1.063], "texture": "#0"}
			}
		},
		{
			"name": "surround",
			"from": [10.25, 0.5, 7],
			"to": [10.75, 1.25, 10.625],
			"faces": {
				"north": {"uv": [0, 0, 0.5, 0.75], "texture": "#0"},
				"east": {"uv": [0.5, 1.25, 1.563, 2], "texture": "#0"},
				"south": {"uv": [0, 0, 0.5, 0.75], "texture": "#0"},
				"west": {"uv": [1, 0, 2.813, 0.75], "texture": "#0"},
				"up": {"uv": [0, 0, 0.5, 1.063], "texture": "#0"},
				"down": {"uv": [0, 0, 0.5, 1.063], "texture": "#0"}
			}
		},
		{
			"name": "surround",
			"from": [5.6375, 0.5, 12],
			"to": [6.95, 1.25, 12.5],
			"faces": {
				"north": {"uv": [1, 0, 2.313, 0.75], "texture": "#0"},
				"east": {"uv": [0, 0, 0.5, 0.75], "texture": "#0"},
				"south": {"uv": [0, 0, 1.063, 0.75], "texture": "#0"},
				"west": {"uv": [0, 0, 0.5, 0.75], "texture": "#0"},
				"up": {"uv": [0, 0, 0.813, 0.5], "texture": "#0"},
				"down": {"uv": [0, 0, 0.813, 0.5], "texture": "#0"}
			}
		},
		{
			"name": "surround",
			"from": [6.8375, 0.5, 12.25],
			"to": [9.2125, 1.25, 12.75],
			"faces": {
				"north": {"uv": [1, 0, 2.313, 0.75], "texture": "#0"},
				"east": {"uv": [0, 0, 0.5, 0.75], "texture": "#0"},
				"south": {"uv": [0, 0, 1, 0.75], "texture": "#0"},
				"west": {"uv": [0, 0, 0.5, 0.75], "texture": "#0"},
				"up": {"uv": [0, 0, 0.813, 0.5], "texture": "#0"},
				"down": {"uv": [0, 0, 0.813, 0.5], "texture": "#0"}
			}
		},
		{
			"name": "surround",
			"from": [9, 0.5, 12],
			"to": [10.3125, 1.25, 12.5],
			"faces": {
				"north": {"uv": [1, 0, 2.313, 0.75], "texture": "#0"},
				"east": {"uv": [0, 0, 0.5, 0.75], "texture": "#0"},
				"south": {"uv": [0, 0, 1, 0.75], "texture": "#0"},
				"west": {"uv": [0, 0, 0.5, 0.75], "texture": "#0"},
				"up": {"uv": [0, 0, 0.813, 0.5], "texture": "#0"},
				"down": {"uv": [0, 0, 0.813, 0.5], "texture": "#0"}
			}
		},
		{
			"name": "column",
			"from": [5.75, 0.5, 8.5],
			"to": [10.25, 1.25, 9.25],
			"faces": {
				"north": {"uv": [1.25, 0, 3, 0.75], "texture": "#0"},
				"east": {"uv": [0, 0, 0.75, 0.75], "texture": "#0"},
				"south": {"uv": [1, 0, 3, 0.75], "texture": "#0"},
				"west": {"uv": [0, 0, 0.75, 0.75], "texture": "#0"},
				"up": {"uv": [0, 0, 1, 0.5], "texture": "#0"},
				"down": {"uv": [0, 0, 1, 0.5], "texture": "#0"}
			}
		},
		{
			"name": "backplate",
			"from": [5.75, 0.5, 5.25],
			"to": [10.25, 1.16, 12.25],
			"faces": {
				"north": {"uv": [1.5, 4.5, 2.5, 5.16], "texture": "#0"},
				"east": {"uv": [1.5, 4.5, 2.5, 5.16], "texture": "#0"},
				"south": {"uv": [1.5, 4.5, 2.5, 5.16], "texture": "#0"},
				"west": {"uv": [1.5, 4.5, 2.5, 5.16], "texture": "#0"},
				"up": {"uv": [1.5, 4.5, 2.5, 5.16], "texture": "#0"},
				"down": {"uv": [1.5, 4.5, 2.5, 5.16], "texture": "#0"}
			}
		},
		{
			"name": "grill",
			"from": [6.125, 0.25, 10.125],
			"to": [8.125, 1.17, 12.125],
			"faces": {
				"north": {"uv": [0, 0, 1, 0.92], "texture": "#0"},
				"east": {"uv": [0, 0, 1, 0.92], "texture": "#0"},
				"south": {"uv": [0, 0, 0.75, 0.92], "texture": "#0"},
				"west": {"uv": [0, 0, 1, 0.92], "texture": "#0"},
				"up": {"uv": [5.25, 5.5, 8, 8], "texture": "#0"},
				"down": {"uv": [0, 0, 1, 1.25], "texture": "#0"}
			}
		},
		{
			"name": "dpad",
			"from": [7.5, 0.25, 5.5],
			"to": [9, 1.2, 7],
			"faces": {
				"north": {"uv": [3.25, 0, 4.25, 0.95], "texture": "#0"},
				"east": {"uv": [3.25, 0, 4.25, 0.95], "texture": "#0"},
				"south": {"uv": [3.25, 0, 4.25, 0.95], "texture": "#0"},
				"west": {"uv": [3.25, 0, 4.25, 0.95], "texture": "#0"},
				"up": {"uv": [4.5, 0.25, 7.75, 3.5], "texture": "#0"},
				"down": {"uv": [3.25, 0, 4.25, 1], "texture": "#0"}
			}
		},
		{
			"name": "button",
			"from": [8.75, 0.375, 7.25],
			"to": [9.75, 1.325, 7.625],
			"rotation": {"angle": 45, "axis": "y", "origin": [9.25, 1.25, 7.5]},
			"faces": {
				"north": {"uv": [0, 5, 1, 5.95], "texture": "#0"},
				"east": {"uv": [0, 5, 0.375, 5.95], "texture": "#0"},
				"south": {"uv": [0, 5, 1, 5.95], "texture": "#0"},
				"west": {"uv": [0, 5, 0.375, 5.95], "texture": "#0"},
				"up": {"uv": [0, 5, 0.375, 6], "rotation": 90, "texture": "#0"},
				"down": {"uv": [0.25, 5, 0.625, 6], "rotation": 270, "texture": "#0"}
			}
		},
		{
			"name": "button",
			"from": [8.75, 0.375, 9.75],
			"to": [9.75, 1.325, 10.125],
			"rotation": {"angle": 45, "axis": "y", "origin": [9.25, 1.25, 10]},
			"faces": {
				"north": {"uv": [0, 5, 1, 5.95], "texture": "#0"},
				"east": {"uv": [0, 5, 0.375, 5.95], "texture": "#0"},
				"south": {"uv": [0, 5, 1, 5.95], "texture": "#0"},
				"west": {"uv": [0, 5, 0.375, 5.95], "texture": "#0"},
				"up": {"uv": [0, 5, 0.375, 6], "rotation": 90, "texture": "#0"},
				"down": {"uv": [0, 5, 0.375, 6], "rotation": 270, "texture": "#0"}
			}
		},
		{
			"name": "button",
			"from": [9, 0.375, 10.5],
			"to": [9.375, 1.325, 11.5],
			"rotation": {"angle": -45, "axis": "y", "origin": [9.25, 1.25, 11]},
			"faces": {
				"north": {"uv": [0, 5, 0.375, 5.95], "texture": "#0"},
				"east": {"uv": [0, 5, 1, 5.95], "texture": "#0"},
				"south": {"uv": [0, 5, 0.375, 5.95], "texture": "#0"},
				"west": {"uv": [0, 5, 1, 5.95], "texture": "#0"},
				"up": {"uv": [0, 5, 0.375, 6], "texture": "#0"},
				"down": {"uv": [0, 5, 0.375, 6], "texture": "#0"}
			}
		},
		{
			"name": "projector",
			"from": [6.5, 0.375, 7.25],
			"to": [7.5, 1.325, 8.25],
			"rotation": {"angle": -45, "axis": "z", "origin": [7, 1.25, 8]},
			"faces": {
				"north": {"uv": [2, 4.25, 2.25, 5.45], "texture": "#0"},
				"east": {"uv": [0, 5, 1, 5.95], "texture": "#0"},
				"south": {"uv": [1.25, 4.25, 1.5, 5.45], "texture": "#0"},
				"west": {"uv": [3.25, 4.25, 4.75, 5.45], "texture": "#0"},
				"up": {"uv": [1.25, 4.25, 2.75, 5.5], "texture": "#0"},
				"down": {"uv": [1.25, 4.25, 2.75, 5.5], "texture": "#0"}
			}
		},
		{
			"name": "led",
			"from": [6.125, 0.875, 8.63],
			"to": [6.625, 1.375, 9.13],
			"rotation": {"angle": 0, "axis": "y", "origin": [7, 1.25, 7.5]},
			"faces": {
				"north": {"uv": [5.25, 4.25, 5.5, 5.25], "rotation": 270, "texture": "#0"},
				"east": {"uv": [5.25, 4.25, 6.25, 4.5], "rotation": 90, "texture": "#0"},
				"south": {"uv": [5.25, 4.25, 5.5, 5.25], "rotation": 90, "texture": "#0"},
				"west": {"uv": [5.25, 4.25, 6.25, 4.5], "rotation": 90, "texture": "#0"},
				"up": {"uv": [5.25, 4.25, 6.25, 5.25], "rotation": 90, "texture": "#0"},
				"down": {"uv": [5.25, 4.25, 6.25, 5.25], "rotation": 90, "texture": "#0"}
			}
		},
		{
			"name": "engraving",
			"from": [8.25, 1.15, 5.25],
			"to": [8.35, 1.19, 12.25],
			"faces": {
				"north": {"uv": [0, 5, 0.1, 6], "texture": "#0"},
				"east": {"uv": [0, 5, 0.1, 6], "texture": "#0"},
				"south": {"uv": [0, 5, 0.1, 6], "texture": "#0"},
				"west": {"uv": [0, 5, 0.1, 6], "texture": "#0"},
				"up": {"uv": [0, 5, 0.1, 6], "texture": "#0"},
				"down": {"uv": [0, 5, 0.1, 6], "texture": "#0"}
			}
		},
		{
			"name": "engraving",
			"from": [6, 1.15, 6.25],
			"to": [10.25, 1.19, 6.35],
			"faces": {
				"north": {"uv": [0, 5, 0.1, 6], "texture": "#0"},
				"east": {"uv": [0, 5, 0.1, 6], "texture": "#0"},
				"south": {"uv": [0, 5, 0.1, 6], "texture": "#0"},
				"west": {"uv": [0, 5, 0.1, 6], "texture": "#0"},
				"up": {"uv": [0, 5, 0.1, 6], "texture": "#0"},
				"down": {"uv": [0, 5, 0.1, 6], "texture": "#0"}
			}
		},
		{
			"name": "engraving",
			"from": [5.75, 1.15, 9.875],
			"to": [8.25, 1.19, 9.975],
			"faces": {
				"north": {"uv": [0, 5, 0.1, 6], "texture": "#0"},
				"east": {"uv": [0, 5, 0.1, 6], "texture": "#0"},
				"south": {"uv": [0, 5, 0.1, 6], "texture": "#0"},
				"west": {"uv": [0, 5, 0.1, 6], "texture": "#0"},
				"up": {"uv": [0, 5, 0.1, 6], "texture": "#0"},
				"down": {"uv": [0, 5, 0.1, 6], "texture": "#0"}
			}
		},
		{
			"name": "engraving",
			"from": [6, 1.15, 9.675],
			"to": [7, 1.19, 9.775],
			"faces": {
				"north": {"uv": [0, 5, 0.1, 6], "texture": "#0"},
				"east": {"uv": [0, 5, 0.1, 6], "texture": "#0"},
				"south": {"uv": [0, 5, 0.1, 6], "texture": "#0"},
				"west": {"uv": [0, 5, 0.1, 6], "texture": "#0"},
				"up": {"uv": [0, 5, 0.1, 6], "texture": "#0"},
				"down": {"uv": [0, 5, 0.1, 6], "texture": "#0"}
			}
		},
		{
			"name": "engraving",
			"from": [6, 1.15, 9.475],
			"to": [6.66, 1.19, 9.575],
			"faces": {
				"north": {"uv": [0, 5, 0.1, 6], "texture": "#0"},
				"east": {"uv": [0, 5, 0.1, 6], "texture": "#0"},
				"south": {"uv": [0, 5, 0.1, 6], "texture": "#0"},
				"west": {"uv": [0, 5, 0.1, 6], "texture": "#0"},
				"up": {"uv": [0, 5, 0.1, 6], "texture": "#0"},
				"down": {"uv": [0, 5, 0.1, 6], "texture": "#0"}
			}
		},
		{
			"name": "stud",
			"from": [4.5, 0.25, 4.5],
			"to": [5.25, 0.75, 5.25],
			"faces": {
				"north": {"uv": [1.25, 6.25, 2.75, 6.75], "texture": "#0"},
				"east": {"uv": [1.25, 6.25, 2.75, 6.75], "texture": "#0"},
				"south": {"uv": [1.25, 6.25, 2.75, 6.75], "texture": "#0"},
				"west": {"uv": [1.25, 6.25, 2.75, 6.75], "texture": "#0"},
				"up": {"uv": [3.25, 6.25, 4.75, 7.75], "texture": "#0"},
				"down": {"uv": [6.75, 4.25, 7.5, 4.75], "texture": "#0"}
			}
		},
		{
			"name": "stud-tip",
			"from": [4.75, 0.75, 4.75],
			"to": [5, 1, 5],
			"faces": {
				"north": {"uv": [4, 7, 4.25, 7.25], "texture": "#0"},
				"east": {"uv": [4, 7, 4.25, 7.25], "texture": "#0"},
				"south": {"uv": [4, 7, 4.25, 7.25], "texture": "#0"},
				"west": {"uv": [4, 7, 4.25, 7.25], "texture": "#0"},
				"up": {"uv": [4, 7, 4.25, 7.25], "texture": "#0"},
				"down": {"uv": [4, 7, 4.25, 7.25], "texture": "#0"}
			}
		},
		{
			"name": "stud",
			"from": [4.5, 0.25, 12.33],
			"to": [5.25, 0.75, 13.08],
			"faces": {
				"north": {"uv": [3.25, 6.25, 4.75, 6.75], "texture": "#0"},
				"east": {"uv": [3.25, 6.25, 4.75, 6.75], "texture": "#0"},
				"south": {"uv": [3.25, 6.25, 4.75, 6.75], "texture": "#0"},
				"west": {"uv": [3.25, 6.25, 4.75, 6.75], "texture": "#0"},
				"up": {"uv": [3.25, 6.25, 4.75, 7.75], "texture": "#0"},
				"down": {"uv": [6.75, 4.25, 7.5, 5], "texture": "#0"}
			}
		},
		{
			"name": "stud-tip",
			"from": [4.75, 0.75, 12.575],
			"to": [5, 1, 12.825],
			"faces": {
				"north": {"uv": [4, 7, 4.25, 7.25], "texture": "#0"},
				"east": {"uv": [4, 7, 4.25, 7.25], "texture": "#0"},
				"south": {"uv": [4, 7, 4.25, 7.25], "texture": "#0"},
				"west": {"uv": [4, 7, 4.25, 7.25], "texture": "#0"},
				"up": {"uv": [4, 7, 4.25, 7.25], "texture": "#0"},
				"down": {"uv": [4, 7, 4.25, 7.25], "texture": "#0"}
			}
		},
		{
			"name": "stud",
			"from": [10.75, 0.25, 4.5],
			"to": [11.5, 0.75, 5.25],
			"faces": {
				"north": {"uv": [1.25, 6.25, 2.75, 6.75], "texture": "#0"},
				"east": {"uv": [1.25, 6.25, 2.75, 6.75], "texture": "#0"},
				"south": {"uv": [1.25, 6.25, 2.75, 7], "texture": "#0"},
				"west": {"uv": [1.25, 6.25, 2.75, 6.75], "texture": "#0"},
				"up": {"uv": [3.25, 6.25, 4.75, 7.75], "texture": "#0"},
				"down": {"uv": [6.75, 4.25, 7.5, 5], "texture": "#0"}
			}
		},
		{
			"name": "stud-tip",
			"from": [11, 0.75, 4.75],
			"to": [11.25, 1, 5],
			"faces": {
				"north": {"uv": [4, 7, 4.25, 7.25], "texture": "#0"},
				"east": {"uv": [4, 7, 4.25, 7.25], "texture": "#0"},
				"south": {"uv": [4, 7, 4.25, 7.25], "texture": "#0"},
				"west": {"uv": [4, 7, 4.25, 7.25], "texture": "#0"},
				"up": {"uv": [4, 7, 4.25, 7.25], "texture": "#0"},
				"down": {"uv": [4, 7, 4.25, 7.25], "texture": "#0"}
			}
		},
		{
			"name": "stud",
			"from": [10.75, 0.25, 12.33],
			"to": [11.5, 0.75, 13.08],
			"faces": {
				"north": {"uv": [3.25, 6.25, 4.75, 6.75], "texture": "#0"},
				"east": {"uv": [3.25, 6.25, 4.75, 6.75], "texture": "#0"},
				"south": {"uv": [3.25, 6.25, 4.75, 6.75], "texture": "#0"},
				"west": {"uv": [3.25, 6.25, 4.75, 6.75], "texture": "#0"},
				"up": {"uv": [3.25, 6.25, 4.75, 7.75], "texture": "#0"},
				"down": {"uv": [6.75, 4.25, 7.5, 5], "texture": "#0"}
			}
		},
		{
			"name": "stud-tip",
			"from": [11, 0.75, 12.575],
			"to": [11.25, 1, 12.825],
			"faces": {
				"north": {"uv": [4, 7, 4.25, 7.25], "texture": "#0"},
				"east": {"uv": [4, 7, 4.25, 7.25], "texture": "#0"},
				"south": {"uv": [4, 7, 4.25, 7.25], "texture": "#0"},
				"west": {"uv": [4, 7, 4.25, 7.25], "texture": "#0"},
				"up": {"uv": [4, 7, 4.25, 7.25], "texture": "#0"},
				"down": {"uv": [4, 7, 4.25, 7.25], "texture": "#0"}
			}
		},
		{
			"from": [3.5, -6.75, 4],
			"to": [4, 0.25, 13.5],
			"faces": {
				"north": {"uv": [0.25, 1.25, 0.375, 3.75], "texture": "#0"},
				"east": {"uv": [0.5, 1.25, 1.75, 3.75], "texture": "#0"},
				"south": {"uv": [0.25, 1.25, 0.5, 3.75], "texture": "#0"},
				"west": {"uv": [2.375, 1.5, 3.625, 3.25], "texture": "#0"},
				"up": {"uv": [2.75, 1.25, 3.25, 3.75], "texture": "#0"},
				"down": {"uv": [2.75, 1.25, 3.25, 3.75], "texture": "#0"}
			}
		},
		{
			"from": [12, -6.75, 4],
			"to": [12.5, 0.25, 13.5],
			"faces": {
				"north": {"uv": [0.25, 1.25, 0.375, 3.75], "texture": "#0"},
				"east": {"uv": [2.375, 1.75, 3.625, 3.25], "texture": "#0"},
				"south": {"uv": [0.25, 1.25, 0.5, 3.75], "texture": "#0"},
				"west": {"uv": [0.5, 1.5, 1.75, 3.75], "texture": "#0"},
				"up": {"uv": [2.75, 1.25, 3.25, 3.75], "texture": "#0"},
				"down": {"uv": [2.75, 1.25, 3.25, 3.75], "texture": "#0"}
			}
		},
		{
			"from": [3, -8, 7.75],
			"to": [3.5, 0, 9.75],
			"rotation": {"angle": 0, "axis": "y", "origin": [3.5, -3, 9]},
			"faces": {
				"north": {"uv": [0.25, 1.25, 0.5, 2.25], "texture": "#0"},
				"east": {"uv": [0.5, 1.25, 1.75, 3.75], "texture": "#0"},
				"south": {"uv": [0.25, 1.25, 0.5, 2.25], "texture": "#0"},
				"west": {"uv": [0.5, 1.25, 1.75, 3.75], "texture": "#0"},
				"up": {"uv": [0.5, 0.25, 1, 2.25], "texture": "#0"},
				"down": {"uv": [0.5, 0, 1, 2], "texture": "#0"}
			}
		},
		{
			"from": [3, -8.5, 7.75],
			"to": [7.5, -8, 9.75],
			"rotation": {"angle": 0, "axis": "y", "origin": [3.5, -3, 9]},
			"faces": {
				"north": {"uv": [0.25, 1.25, 0.5, 1.75], "texture": "#0"},
				"east": {"uv": [1, 0, 3, 0.5], "texture": "#0"},
				"south": {"uv": [0.25, 1.25, 0.5, 1.75], "texture": "#0"},
				"west": {"uv": [0, 0, 1, 0.5], "texture": "#0"},
				"up": {"uv": [0.5, 1.5, 1.75, 3], "texture": "#0"},
				"down": {"uv": [0.5, 1.25, 1.75, 3.25], "texture": "#0"}
			}
		},
		{
			"name": "angled_cube",
			"from": [7.3, -9, 7.75],
			"to": [8.55, -8.5, 9.75],
			"rotation": {"angle": -45, "axis": "z", "origin": [8, -8.5, 9]},
			"faces": {
				"north": {"uv": [0.25, 1.25, 0.5, 1.75], "texture": "#0"},
				"east": {"uv": [0, 0, 1, 0.5], "texture": "#0"},
				"south": {"uv": [0.25, 1.5, 0.5, 2], "texture": "#0"},
				"west": {"uv": [0, 0, 0.75, 0.5], "texture": "#0"},
				"up": {"uv": [0, 0, 1, 1.25], "texture": "#0"},
				"down": {"uv": [0, 0, 1, 1.25], "texture": "#0"}
			}
		},
		{
			"from": [8.5, -8.5, 7.75],
			"to": [13, -8, 9.75],
			"rotation": {"angle": 0, "axis": "y", "origin": [3.5, -3, 9]},
			"faces": {
				"north": {"uv": [0.25, 1.25, 0.5, 1.75], "texture": "#0"},
				"east": {"uv": [0.5, 1.75, 1.75, 2.25], "texture": "#0"},
				"south": {"uv": [0.25, 1.5, 0.5, 2], "texture": "#0"},
				"west": {"uv": [1, 0, 3, 0.5], "texture": "#0"},
				"up": {"uv": [0.5, 1, 1.75, 3], "texture": "#0"},
				"down": {"uv": [0.5, 1, 1.75, 2.25], "texture": "#0"}
			}
		},
		{
			"from": [8.05, -9.239, 7.75],
			"to": [10.3, -8.739, 9.75],
			"rotation": {"angle": 0, "axis": "y", "origin": [3.5, -3, 9]},
			"faces": {
				"north": {"uv": [0.25, 1.25, 0.5, 1.75], "texture": "#0"},
				"east": {"uv": [0, 0, 1, 0.5], "texture": "#0"},
				"south": {"uv": [0.25, 1.5, 0.5, 2], "texture": "#0"},
				"west": {"uv": [0, 0, 1, 0.5], "texture": "#0"},
				"up": {"uv": [0.5, 1.5, 1.75, 3.5], "texture": "#0"},
				"down": {"uv": [0.5, 1.5, 1.75, 3.5], "texture": "#0"}
			}
		},
		{
			"from": [12.5, -8, 7.75],
			"to": [13, 0, 9.75],
			"rotation": {"angle": 0, "axis": "y", "origin": [3.5, -3, 9]},
			"faces": {
				"north": {"uv": [0.25, 1.25, 0.5, 3.75], "texture": "#0"},
				"east": {"uv": [0.5, 1.5, 1.75, 3.25], "texture": "#0"},
				"south": {"uv": [0.25, 1.25, 0.5, 3.75], "texture": "#0"},
				"west": {"uv": [0.5, 1.25, 1.75, 3.75], "texture": "#0"},
				"up": {"uv": [0, 0, 0.5, 2], "texture": "#0"},
				"down": {"uv": [0, 0, 0.5, 2], "texture": "#0"}
			}
		},
		{
			"from": [11.5, 0, 7.75],
			"to": [13, 0.5, 9.75],
			"rotation": {"angle": 0, "axis": "y", "origin": [3.5, -3, 9]},
			"faces": {
				"north": {"uv": [0.25, 1.5, 0.5, 2], "texture": "#0"},
				"east": {"uv": [0, 0, 1, 0.5], "texture": "#0"},
				"south": {"uv": [0.25, 1.25, 0.5, 1.75], "texture": "#0"},
				"west": {"uv": [0, 0, 1, 0.5], "texture": "#0"},
				"up": {"uv": [0.5, 1.25, 1.75, 3.25], "texture": "#0"},
				"down": {"uv": [0.5, 1.25, 1.75, 3.25], "texture": "#0"}
			}
		},
		{
			"from": [3, 0, 7.75],
			"to": [4.5, 0.5, 9.75],
			"rotation": {"angle": 0, "axis": "y", "origin": [3.5, -3, 9]},
			"faces": {
				"north": {"uv": [0.25, 1.25, 0.5, 1.75], "texture": "#0"},
				"east": {"uv": [0, 0, 0.75, 0.5], "texture": "#0"},
				"south": {"uv": [0.25, 1.25, 0.5, 1.75], "texture": "#0"},
				"west": {"uv": [0, 0, 1, 0.5], "texture": "#0"},
				"up": {"uv": [0.5, 1.25, 1.75, 3.25], "texture": "#0"},
				"down": {"uv": [0.5, 1.5, 1.75, 3.5], "texture": "#0"}
			}
		},
		{
			"from": [9.88, -9.239, 7.85],
			"to": [10.88, -8.739, 9.225],
			"rotation": {"angle": 45, "axis": "y", "origin": [10.5, -9, 8.5]},
			"faces": {
				"north": {"uv": [0, 0, 1, 0.5], "rotation": 180, "texture": "#0"},
				"east": {"uv": [0.25, 1.25, 0.5, 1.75], "rotation": 180, "texture": "#0"},
				"south": {"uv": [0, 0, 1, 0.5], "rotation": 180, "texture": "#0"},
				"west": {"uv": [0, 0, 0.875, 0.5], "rotation": 180, "texture": "#0"},
				"up": {"uv": [0, 0, 1, 1.125], "texture": "#0"},
				"down": {"uv": [0, 0, 1, 1.125], "texture": "#0"}
			}
		},
		{
			"from": [9.89, -9.239, 8.3],
			"to": [10.89, -8.739, 9.675],
			"rotation": {"angle": -45, "axis": "y", "origin": [10.5, -9.5, 9]},
			"faces": {
				"north": {"uv": [0, 0, 1, 0.5], "rotation": 180, "texture": "#0"},
				"east": {"uv": [0.25, 1.75, 0.5, 2.25], "rotation": 180, "texture": "#0"},
				"south": {"uv": [0, 0, 1, 0.5], "rotation": 180, "texture": "#0"},
				"west": {"uv": [0, 0, 0.875, 0.5], "rotation": 180, "texture": "#0"},
				"up": {"uv": [0, 0, 1, 1.125], "rotation": 180, "texture": "#0"},
				"down": {"uv": [0, 0, 1, 1.125], "rotation": 180, "texture": "#0"}
			}
		},
		{
			"from": [7, -8.375, 7.5],
			"to": [7.25, -8.125, 10],
			"faces": {
				"north": {"uv": [9.5, 2.5, 11.25, 2.75], "texture": "#0"},
				"east": {"uv": [9.75, 2.75, 11, 3], "texture": "#0"},
				"south": {"uv": [9.5, 2.5, 11.25, 2.75], "texture": "#0"},
				"west": {"uv": [9.5, 2.5, 11.25, 2.75], "texture": "#0"},
				"up": {"uv": [9.5, 2.5, 11.25, 2.75], "texture": "#0"},
				"down": {"uv": [9.5, 2.5, 11.25, 2.75], "texture": "#0"}
			}
		},
		{
			"from": [7, -8.375, 7.5],
			"to": [9.25, -8.125, 7.75],
			"faces": {
				"north": {"uv": [9.5, 2.5, 11.25, 2.75], "texture": "#0"},
				"east": {"uv": [9.5, 2.5, 11.25, 2.75], "texture": "#0"},
				"south": {"uv": [9.75, 2.75, 11, 3], "texture": "#0"},
				"west": {"uv": [9.5, 2.5, 11.25, 2.75], "texture": "#0"},
				"up": {"uv": [9.75, 2.5, 11, 2.75], "texture": "#0"},
				"down": {"uv": [9.5, 2.5, 11.25, 2.75], "texture": "#0"}
			}
		},
		{
			"from": [7, -8.375, 9.75],
			"to": [9.25, -8.125, 10],
			"faces": {
				"north": {"uv": [9.75, 2.75, 11, 3], "texture": "#0"},
				"east": {"uv": [9.5, 2.5, 11.25, 2.75], "texture": "#0"},
				"south": {"uv": [9.5, 2.5, 11.25, 2.75], "texture": "#0"},
				"west": {"uv": [9.75, 2.75, 11, 3], "texture": "#0"},
				"up": {"uv": [9.5, 2.5, 11.25, 2.75], "texture": "#0"},
				"down": {"uv": [9.5, 2.5, 11.25, 2.75], "texture": "#0"}
			}
		},
		{
			"from": [6.75, -8.8, 8.75],
			"to": [8, -8.55, 9],
			"faces": {
				"north": {"uv": [9.5, 0, 10.75, 0.25], "texture": "#0"},
				"east": {"uv": [9, 1, 9.25, 1.25], "texture": "#0"},
				"south": {"uv": [9.5, 0, 10.75, 0.25], "texture": "#0"},
				"west": {"uv": [9, 0.75, 9.25, 1], "texture": "#0"},
				"up": {"uv": [9.5, 0.5, 10.75, 0.75], "texture": "#0"},
				"down": {"uv": [9.5, 0.5, 10.75, 0.75], "texture": "#0"}
			}
		},
		{
			"from": [8, -8.55, 8.75],
			"to": [8.5, -8.3, 9],
			"faces": {
				"north": {"uv": [10.25, 0.75, 10.75, 1], "texture": "#0"},
				"east": {"uv": [10.25, 0.75, 10.75, 1], "texture": "#0"},
				"south": {"uv": [10.25, 0.75, 10.75, 1], "texture": "#0"},
				"west": {"uv": [10.25, 0.75, 10.75, 1], "texture": "#0"},
				"up": {"uv": [10.25, 0.75, 10.75, 1], "texture": "#0"},
				"down": {"uv": [10.25, 0.75, 10.75, 1], "texture": "#0"}
			}
		},
		{
			"name": "surround",
			"from": [5.125, 1, 7],
			"to": [5.875, 1.75, 10.625],
			"faces": {
				"north": {"uv": [0, 0, 0.75, 0.75], "texture": "#0"},
				"east": {"uv": [1, 0, 2, 0.75], "texture": "#0"},
				"south": {"uv": [0, 0, 0.75, 0.75], "texture": "#0"},
				"west": {"uv": [0, 0, 0.875, 0.5], "texture": "#0"},
				"up": {"uv": [0, 0, 0.75, 1.125], "texture": "#0"},
				"down": {"uv": [0, 0, 0.75, 1.125], "texture": "#0"}
			}
		},
		{
			"name": "surround",
			"from": [5.375, 1, 10.5],
			"to": [6, 1.75, 12.3125],
			"faces": {
				"north": {"uv": [0, 0, 0.625, 0.75], "texture": "#0"},
				"east": {"uv": [1, 0, 2, 0.75], "texture": "#0"},
				"south": {"uv": [0, 0, 0.625, 0.75], "texture": "#0"},
				"west": {"uv": [0, 0, 0.875, 0.5], "texture": "#0"},
				"up": {"uv": [0, 0, 0.75, 1.125], "texture": "#0"},
				"down": {"uv": [0, 0, 0.75, 1.125], "texture": "#0"}
			}
		},
		{
			"name": "surround",
			"from": [5.375, 1, 5.25],
			"to": [6, 1.75, 7.0625],
			"faces": {
				"north": {"uv": [0, 0, 0.625, 0.75], "texture": "#0"},
				"east": {"uv": [1, 0, 2.25, 0.75], "texture": "#0"},
				"south": {"uv": [0, 0, 0.625, 0.75], "texture": "#0"},
				"west": {"uv": [0, 0, 0.875, 0.5], "texture": "#0"},
				"up": {"uv": [0, 0, 0.75, 1.125], "texture": "#0"},
				"down": {"uv": [0, 0, 0.75, 1.125], "texture": "#0"}
			}
		},
		{
			"name": "surround",
			"from": [5.5125, 1, 4.875],
			"to": [6.9875, 1.75, 5.5],
			"faces": {
				"north": {"uv": [0, 0, 0.975, 0.75], "texture": "#0"},
				"east": {"uv": [0, 0, 0.625, 0.75], "texture": "#0"},
				"south": {"uv": [1, 0, 2.225, 0.75], "texture": "#0"},
				"west": {"uv": [0, 0, 0.625, 0.75], "texture": "#0"},
				"up": {"uv": [0, 0, 0.75, 1.125], "texture": "#0"},
				"down": {"uv": [0, 0, 0.75, 1.125], "texture": "#0"}
			}
		},
		{
			"name": "surround",
			"from": [6.8375, 1, 4.625],
			"to": [9.2125, 1.75, 5.25],
			"faces": {
				"north": {"uv": [0, 0, 0.975, 0.75], "texture": "#0"},
				"east": {"uv": [0, 0, 0.625, 0.75], "texture": "#0"},
				"south": {"uv": [1, 0, 2, 0.75], "texture": "#0"},
				"west": {"uv": [0, 0, 0.625, 0.75], "texture": "#0"},
				"up": {"uv": [0, 0, 0.75, 1.125], "texture": "#0"},
				"down": {"uv": [0, 0, 0.75, 1.125], "texture": "#0"}
			}
		},
		{
			"name": "surround",
			"from": [9.1, 1, 4.875],
			"to": [10.5375, 1.75, 5.5],
			"faces": {
				"north": {"uv": [0, 0, 0.975, 0.75], "texture": "#0"},
				"east": {"uv": [0, 0, 0.625, 0.75], "texture": "#0"},
				"south": {"uv": [1, 0, 2.475, 0.75], "texture": "#0"},
				"west": {"uv": [0, 0, 0.625, 0.75], "texture": "#0"},
				"up": {"uv": [0, 0, 0.75, 1.125], "texture": "#0"},
				"down": {"uv": [0, 0, 0.75, 1.125], "texture": "#0"}
			}
		},
		{
			"name": "surround",
			"from": [10, 1, 5.25],
			"to": [10.625, 1.75, 7.0625],
			"faces": {
				"north": {"uv": [0, 0, 0.625, 0.75], "texture": "#0"},
				"east": {"uv": [0, 0, 0.813, 0.75], "texture": "#0"},
				"south": {"uv": [1, 0, 1.625, 0.75], "texture": "#0"},
				"west": {"uv": [1, 0, 2, 0.75], "texture": "#0"},
				"up": {"uv": [0, 0, 0.75, 1.125], "texture": "#0"},
				"down": {"uv": [0, 0, 0.75, 1.125], "texture": "#0"}
			}
		},
		{
			"name": "surround",
			"from": [10.25, 1, 7],
			"to": [10.875, 1.75, 10.625],
			"faces": {
				"north": {"uv": [0, 0, 0.625, 0.75], "texture": "#0"},
				"east": {"uv": [0, 0, 0.813, 0.75], "texture": "#0"},
				"south": {"uv": [0, 0, 0.625, 0.75], "texture": "#0"},
				"west": {"uv": [1, 0, 2, 0.75], "texture": "#0"},
				"up": {"uv": [0, 0, 0.75, 1.125], "texture": "#0"},
				"down": {"uv": [0, 0, 0.75, 1.125], "texture": "#0"}
			}
		},
		{
			"name": "surround",
			"from": [10, 1, 10.5],
			"to": [10.625, 1.75, 12.3125],
			"faces": {
				"north": {"uv": [0, 0, 0.625, 0.75], "texture": "#0"},
				"east": {"uv": [0, 0, 0.813, 0.75], "texture": "#0"},
				"south": {"uv": [0, 0, 0.625, 0.75], "texture": "#0"},
				"west": {"uv": [1, 0, 2, 0.75], "texture": "#0"},
				"up": {"uv": [0, 0, 0.75, 1.125], "texture": "#0"},
				"down": {"uv": [0, 0, 0.75, 1.125], "texture": "#0"}
			}
		},
		{
			"name": "surround",
			"from": [9, 1, 12],
			"to": [10.475, 1.75, 12.625],
			"faces": {
				"north": {"uv": [1, 0, 1.975, 0.75], "texture": "#0"},
				"east": {"uv": [0, 0, 0.625, 0.75], "texture": "#0"},
				"south": {"uv": [0, 0, 0.975, 0.75], "texture": "#0"},
				"west": {"uv": [0, 0, 0.625, 0.75], "texture": "#0"},
				"up": {"uv": [0, 0, 0.75, 1.125], "texture": "#0"},
				"down": {"uv": [0, 0, 0.75, 1.125], "texture": "#0"}
			}
		},
		{
			"name": "surround",
			"from": [6.8375, 1, 12.25],
			"to": [9.2125, 1.75, 12.875],
			"faces": {
				"north": {"uv": [1, 0, 1.975, 0.75], "texture": "#0"},
				"east": {"uv": [0, 0, 0.625, 0.75], "texture": "#0"},
				"south": {"uv": [0, 0, 0.975, 0.75], "texture": "#0"},
				"west": {"uv": [0, 0, 0.625, 0.75], "texture": "#0"},
				"up": {"uv": [0, 0, 0.75, 1.125], "texture": "#0"},
				"down": {"uv": [0, 0, 0.75, 1.125], "texture": "#0"}
			}
		},
		{
			"name": "surround",
			"from": [5.4755, 1, 12],
			"to": [6.9505, 1.75, 12.625],
			"faces": {
				"north": {"uv": [1, 0, 1.975, 0.75], "texture": "#0"},
				"east": {"uv": [0, 0, 0.625, 0.75], "texture": "#0"},
				"south": {"uv": [0, 0, 0.975, 0.75], "texture": "#0"},
				"west": {"uv": [0, 0, 0.625, 0.75], "texture": "#0"},
				"up": {"uv": [0, 0, 0.75, 1.125], "texture": "#0"},
				"down": {"uv": [0, 0, 0.75, 1.125], "texture": "#0"}
			}
		},
		{
			"from": [6, 1.5, 5.5],
			"to": [10, 2, 7],
			"faces": {
				"north": {"uv": [1, 0, 2.25, 0.5], "texture": "#0"},
				"east": {"uv": [1, 0, 2.5, 0.5], "texture": "#0"},
				"south": {"uv": [9.75, 0.5, 10.75, 1], "texture": "#0"},
				"west": {"uv": [1, 0, 2.25, 0.5], "texture": "#0"},
				"up": {"uv": [0, 0, 1, 1.25], "texture": "#0"},
				"down": {"uv": [9.5, 0.75, 11.5, 1], "texture": "#0"}
			}
		},
		{
			"from": [6, 1.5, 10.5],
			"to": [10, 2, 12],
			"faces": {
				"north": {"uv": [0, 0, 1, 0.25], "texture": "#0"},
				"east": {"uv": [1, 0, 2.25, 0.5], "texture": "#0"},
				"south": {"uv": [1, 0, 2, 0.25], "texture": "#0"},
				"west": {"uv": [1, 0, 2, 0.5], "texture": "#0"},
				"up": {"uv": [0, 0, 1, 1], "texture": "#0"},
				"down": {"uv": [9.5, 0.75, 11.5, 1], "texture": "#0"}
			}
		},
		{
			"from": [6.75, 1.5, 12],
			"to": [9.5, 2, 12.25],
			"faces": {
				"north": {"uv": [0, 0, 1, 0.5], "texture": "#0"},
				"east": {"uv": [1, 0, 1.25, 0.5], "texture": "#0"},
				"south": {"uv": [1, 0, 2.25, 0.5], "texture": "#0"},
				"west": {"uv": [1, 0, 1.25, 0.5], "texture": "#0"},
				"up": {"uv": [0, 0, 1, 0.25], "texture": "#0"},
				"down": {"uv": [9.5, 0.75, 11.5, 1], "texture": "#0"}
			}
		},
		{
			"from": [6.75, 1.5, 5.25],
			"to": [9.5, 2, 5.5],
			"faces": {
				"north": {"uv": [1, 0, 1.75, 0.5], "texture": "#0"},
				"east": {"uv": [1, 0, 1.25, 0.5], "texture": "#0"},
				"south": {"uv": [0, 0, 1, 0.5], "texture": "#0"},
				"west": {"uv": [1, 0, 1.25, 0.5], "texture": "#0"},
				"up": {"uv": [0, 0, 1, 0.25], "texture": "#0"},
				"down": {"uv": [9.5, 0.75, 11.75, 1], "texture": "#0"}
			}
		},
		{
			"from": [7.375, 1.5, 7],
			"to": [10.25, 2, 8.25],
			"faces": {
				"north": {"uv": [0, 0, 0.875, 0.5], "texture": "#0"},
				"east": {"uv": [1, 0, 2.25, 0.5], "texture": "#0"},
				"south": {"uv": [0, 0, 2.875, 0.5], "texture": "#0"},
				"west": {"uv": [9.75, 0.75, 11, 1.25], "texture": "#0"},
				"up": {"uv": [0.5, 1.25, 1.625, 2.5], "texture": "#0"},
				"down": {"uv": [9.5, 0.75, 11.5, 1], "texture": "#0"}
			}
		},
		{
			"from": [5.875, 1.5, 7],
			"to": [6.375, 2, 8.25],
			"faces": {
				"north": {"uv": [1, 0, 1.5, 0.5], "texture": "#0"},
				"east": {"uv": [9.5, 0.5, 10.75, 1], "texture": "#0"},
				"south": {"uv": [0, 0, 0.5, 0.5], "texture": "#0"},
				"west": {"uv": [1, 0, 2, 0.5], "texture": "#0"},
				"up": {"uv": [0, 0, 0.5, 1.25], "texture": "#0"},
				"down": {"uv": [9.5, 0.75, 12.5, 1], "texture": "#0"}
			}
		},
		{
			"from": [6.375, 2, 7],
			"to": [7.375, 2.25, 8.375],
			"faces": {
				"north": {"uv": [1, 0, 2, 0.25], "texture": "#0"},
				"east": {"uv": [1, 0, 2.375, 0.25], "texture": "#0"},
				"south": {"uv": [1, 0, 2, 0.25], "texture": "#0"},
				"west": {"uv": [1, 0, 2.375, 0.25], "texture": "#0"},
				"up": {"uv": [0, 0, 1, 0.875], "texture": "#0"},
				"down": {"uv": [9.5, 0.75, 11.5, 1], "texture": "#0"}
			}
		},
		{
			"from": [5.875, 1.5, 8.25],
			"to": [10.25, 2, 10.5],
			"faces": {
				"north": {"uv": [10.25, 0.75, 11.125, 1], "texture": "#0"},
				"east": {"uv": [1, 0, 2.25, 0.5], "texture": "#0"},
				"south": {"uv": [1, 0, 1.875, 0.25], "texture": "#0"},
				"west": {"uv": [1, 0, 2, 0.5], "texture": "#0"},
				"up": {"uv": [0, 0, 0.875, 1], "texture": "#0"},
				"down": {"uv": [9.5, 0.75, 11.5, 1], "texture": "#0"}
			}
		},
		{
			"name": "main",
			"from": [4, 0.75, 5.25],
			"to": [5.5, 1.25, 12.375],
			"faces": {
				"north": {"uv": [1, 0, 2.5, 0.5], "texture": "#0"},
				"east": {"uv": [1, 0, 2.25, 0.5], "texture": "#0"},
				"south": {"uv": [0.25, 1.5, 0.375, 2], "texture": "#0"},
				"west": {"uv": [2.25, 0, 2.625, 0.5], "texture": "#0"},
				"up": {"uv": [0.5, 1.25, 1.75, 4], "texture": "#0"},
				"down": {"uv": [0.5, 1, 1.75, 4], "texture": "#0"}
			}
		},
		{
			"name": "main",
			"from": [5.25, 0.75, 4],
			"to": [10.75, 1.25, 5.25],
			"faces": {
				"north": {"uv": [0.25, 1.25, 0.375, 1.75], "texture": "#0"},
				"east": {"uv": [1, 0, 2.5, 0.5], "texture": "#0"},
				"south": {"uv": [1, 0, 2.25, 0.5], "texture": "#0"},
				"west": {"uv": [0.25, 1.5, 0.5, 2], "texture": "#0"},
				"up": {"uv": [0.5, 1.5, 1.75, 3], "texture": "#0"},
				"down": {"uv": [0.5, 1.25, 1.5, 2.75], "texture": "#0"}
			}
		},
		{
			"name": "main",
			"from": [10.5, 0.75, 5.25],
			"to": [12, 1.25, 12.375],
			"faces": {
				"north": {"uv": [1, 0, 2.5, 0.5], "texture": "#0"},
				"east": {"uv": [2.25, 0, 3, 0.5], "texture": "#0"},
				"south": {"uv": [1, 0, 2.5, 0.5], "texture": "#0"},
				"west": {"uv": [1, 0, 2, 0.5], "texture": "#0"},
				"up": {"uv": [0.5, 1.25, 1.75, 4], "texture": "#0"},
				"down": {"uv": [0.5, 1, 1.75, 4], "texture": "#0"}
			}
		},
		{
			"name": "main",
			"from": [5.25, 0.75, 12.25],
			"to": [10.75, 1.25, 13.5],
			"faces": {
				"north": {"uv": [1, 0, 2, 0.5], "texture": "#0"},
				"east": {"uv": [1, 0, 2.5, 0.5], "texture": "#0"},
				"south": {"uv": [2.25, 0, 3, 0.5], "texture": "#0"},
				"west": {"uv": [1, 0, 2.5, 0.5], "texture": "#0"},
				"up": {"uv": [0.5, 1.5, 1.5, 3], "texture": "#0"},
				"down": {"uv": [0.5, 1.25, 1.5, 2.75], "texture": "#0"}
			}
		},
		{
			"name": "side1",
			"from": [11.5, 0.75, 4],
			"to": [12, 1.25, 5.25],
			"faces": {
				"north": {"uv": [0.25, 1.25, 0.5, 1.75], "texture": "#0"},
				"east": {"uv": [0.25, 1.5, 0.375, 2], "texture": "#0"},
				"south": {"uv": [0, 0, 0.5, 0.5], "texture": "#0"},
				"west": {"uv": [0, 0, 1.25, 0.5], "texture": "#0"},
				"up": {"uv": [0, 0, 0.5, 1.25], "texture": "#0"},
				"down": {"uv": [0, 0, 0.5, 1.25], "texture": "#0"}
			}
		},
		{
			"name": "side2",
			"from": [10.75, 0.75, 4],
			"to": [11.5, 1.25, 4.5],
			"faces": {
				"north": {"uv": [0.25, 1.5, 0.5, 2], "texture": "#0"},
				"east": {"uv": [0, 0, 0.5, 0.5], "texture": "#0"},
				"south": {"uv": [1, 0, 1.5, 0.5], "texture": "#0"},
				"west": {"uv": [1, 0, 1.5, 0.5], "texture": "#0"},
				"up": {"uv": [0, 0, 0.5, 1.25], "texture": "#0"},
				"down": {"uv": [0, 0, 0.75, 0.5], "texture": "#0"}
			}
		},
		{
			"name": "side3",
			"from": [11.5, 0.75, 12.375],
			"to": [12, 1.25, 13.5],
			"faces": {
				"north": {"uv": [1, 0, 1.5, 0.5], "texture": "#0"},
				"east": {"uv": [2.25, 0, 2.875, 0.5], "texture": "#0"},
				"south": {"uv": [2.25, 0, 2.75, 0.5], "texture": "#0"},
				"west": {"uv": [1, 0, 2.125, 0.5], "texture": "#0"},
				"up": {"uv": [0, 0, 0.5, 1.25], "texture": "#0"},
				"down": {"uv": [0, 0, 0.5, 1.125], "texture": "#0"}
			}
		},
		{
			"name": "side4",
			"from": [10.75, 0.75, 13],
			"to": [11.5, 1.25, 13.5],
			"faces": {
				"north": {"uv": [1, 0, 1.75, 0.5], "texture": "#0"},
				"east": {"uv": [1, 0, 1.5, 0.5], "texture": "#0"},
				"south": {"uv": [2.25, 0, 3, 0.5], "texture": "#0"},
				"west": {"uv": [1, 0, 1.5, 0.5], "texture": "#0"},
				"up": {"uv": [0, 0, 0.5, 1.25], "texture": "#0"},
				"down": {"uv": [0, 0, 0.75, 0.5], "texture": "#0"}
			}
		},
		{
			"name": "side5",
			"from": [4, 0.75, 12.375],
			"to": [4.5, 1.25, 13.5],
			"faces": {
				"north": {"uv": [1, 0, 1.5, 0.5], "texture": "#0"},
				"east": {"uv": [1, 0, 2.125, 0.5], "texture": "#0"},
				"south": {"uv": [0.25, 1.25, 0.375, 1.75], "texture": "#0"},
				"west": {"uv": [2.25, 0, 2.875, 0.5], "texture": "#0"},
				"up": {"uv": [0, 0, 0.5, 1.25], "texture": "#0"},
				"down": {"uv": [0, 0, 0.5, 1.125], "texture": "#0"}
			}
		},
		{
			"name": "side6",
			"from": [4.5, 0.75, 13],
			"to": [5.25, 1.25, 13.5],
			"faces": {
				"north": {"uv": [1, 0, 1.75, 0.5], "texture": "#0"},
				"east": {"uv": [1, 0, 1.5, 0.5], "texture": "#0"},
				"south": {"uv": [2.25, 0, 2.99, 0.5], "texture": "#0"},
				"west": {"uv": [1, 0, 1.5, 0.5], "texture": "#0"},
				"up": {"uv": [0, 0, 0.5, 1.25], "texture": "#0"},
				"down": {"uv": [0, 0, 0.75, 0.5], "texture": "#0"}
			}
		},
		{
			"name": "side7",
			"from": [4.5, 0.75, 4],
			"to": [5.25, 1.25, 4.5],
			"faces": {
				"north": {"uv": [0.25, 1.5, 0.5, 2], "texture": "#0"},
				"east": {"uv": [1.5, 0, 2, 0.5], "texture": "#0"},
				"south": {"uv": [1, 0, 1.5, 0.5], "texture": "#0"},
				"west": {"uv": [1.25, 0, 1.75, 0.5], "texture": "#0"},
				"up": {"uv": [0, 0, 0.5, 1.25], "texture": "#0"},
				"down": {"uv": [0, 0, 0.75, 0.5], "texture": "#0"}
			}
		},
		{
			"name": "side8",
			"from": [4, 0.75, 4],
			"to": [4.5, 1.25, 5.25],
			"faces": {
				"north": {"uv": [0.25, 1.5, 0.5, 2], "texture": "#0"},
				"east": {"uv": [1, 0, 2.25, 0.5], "texture": "#0"},
				"south": {"uv": [1, 0, 1.5, 0.5], "texture": "#0"},
				"west": {"uv": [0.25, 1.5, 0.375, 2], "texture": "#0"},
				"up": {"uv": [0, 0, 0.5, 1.25], "texture": "#0"},
				"down": {"uv": [0, 0, 0.5, 1.25], "texture": "#0"}
			}
		},
		{
			"name": "socket",
			"from": [4.375, 0.75, 12.185],
			"to": [5.375, 1.5, 13.185],
			"faces": {
				"north": {"uv": [0.125, 8, 0.875, 9], "texture": "#0"},
				"east": {"uv": [0, 8, 1, 9], "texture": "#0"},
				"south": {"uv": [0, 8, 1, 8.75], "texture": "#0"},
				"west": {"uv": [0.125, 8, 0.875, 9], "texture": "#0"},
				"up": {"uv": [1.25, 6.25, 2.75, 7.75], "texture": "#0"},
				"down": {"uv": [1.25, 6.25, 2.75, 7.75], "texture": "#0"}
			}
		},
		{
			"name": "socket",
			"from": [4.375, 0.75, 4.375],
			"to": [5.375, 1.5, 5.375],
			"faces": {
				"north": {"uv": [0.125, 8, 0.875, 9], "texture": "#0"},
				"east": {"uv": [0, 8, 1, 9], "texture": "#0"},
				"south": {"uv": [0, 8, 1, 8.75], "texture": "#0"},
				"west": {"uv": [0.125, 8, 0.875, 9], "texture": "#0"},
				"up": {"uv": [1.25, 6.25, 2.75, 7.75], "texture": "#0"},
				"down": {"uv": [1.25, 6.25, 2.75, 7.75], "texture": "#0"}
			}
		},
		{
			"name": "socket",
			"from": [10.625, 0.75, 4.375],
			"to": [11.625, 1.5, 5.375],
			"faces": {
				"north": {"uv": [0.125, 8, 0.875, 9], "texture": "#0"},
				"east": {"uv": [0, 8, 1, 9], "texture": "#0"},
				"south": {"uv": [0, 8, 1, 8.75], "texture": "#0"},
				"west": {"uv": [0.125, 8, 0.875, 9], "texture": "#0"},
				"up": {"uv": [1.25, 6.25, 2.75, 7.75], "texture": "#0"},
				"down": {"uv": [1.25, 6.25, 2.75, 7.75], "texture": "#0"}
			}
		},
		{
			"name": "socket",
			"from": [10.625, 0.75, 12.185],
			"to": [11.625, 1.5, 13.185],
			"faces": {
				"north": {"uv": [0.125, 8, 0.875, 9], "texture": "#0"},
				"east": {"uv": [0, 8, 1, 9], "texture": "#0"},
				"south": {"uv": [0, 8, 1, 8.75], "texture": "#0"},
				"west": {"uv": [0.125, 8, 0.875, 9], "texture": "#0"},
				"up": {"uv": [1.25, 6.25, 2.75, 7.75], "texture": "#0"},
				"down": {"uv": [1.25, 6.25, 2.75, 7.75], "texture": "#0"}
			}
		}
	],
	"display": {
		"thirdperson_righthand": {
			"rotation": [0, 45, 0],
			"translation": [0, 4, 0],
			"scale": [0.4, 0.5, 0.4]
		},
		"thirdperson_lefthand": {
			"rotation": [0, -135, 0],
			"translation": [0, 4, 0],
			"scale": [0.4, 0.5, 0.4]
		},
		"firstperson_righthand": {
			"rotation": [14, 45, 5],
			"translation": [-2.25, 7.5, 1.5],
			"scale": [0.5, 0.5, 0.5]
		},
		"firstperson_lefthand": {
			"rotation": [14, -135, -5],
			"translation": [-2.25, 7.5, 1.5],
			"scale": [0.5, 0.5, 0.5]
		},
		"ground": {
			"translation": [0, 5.25, 0],
			"scale": [0.5, 0.5, 0.5]
		},
		"gui": {
			"rotation": [45, 135, 0],
			"translation": [0, 7, 0]
		},
		"head": {
			"translation": [0, 23.75, 0]
		},
		"fixed": {
			"rotation": [-90, -90, -90],
			"translation": [0, 9, -3]
		}
	},
	"groups": [
		{
			"name": "body",
			"origin": [8, 8, 8],
			"children": [0,
				{
					"name": "module",
					"origin": [8, 8, 8],
					"children": [
						{
							"name": "outline",
							"origin": [8, 8, 8],
							"children": [1, 2, 3, 4, 5, 6, 7, 8, 9, 10, 11, 12, 13]
						},
						{
							"name": "controls",
							"origin": [8, 8, 8],
							"children": [14, 15, 16, 17, 18, 19, 20, 21, 22, 23, 24, 25, 26]
						}
					]
				},
				{
					"name": "studs",
					"origin": [8, 8, 8],
					"children": [27, 28, 29, 30, 31, 32, 33, 34]
				}
			]
		},
		{
			"name": "straps",
			"origin": [8, 8, 8],
			"children": [
				{
					"name": "sides",
					"origin": [8, 8, 8],
					"children": [35, 36]
				},
				{
					"name": "thin",
					"origin": [8, 8, 8],
					"children": [37, 38, 39, 40, 41, 42, 43, 44, 45, 46,
						{
							"name": "buckle",
							"origin": [8, 8, 8],
							"children": [47, 48, 49, 50, 51]
						}
					]
				}
			]
		},
		{
			"name": "lid",
			"origin": [8, 8, 8],
			"children": [
				{
					"name": "module-lid",
					"origin": [8, 8, 8],
					"children": [52, 53, 54, 55, 56, 57, 58, 59, 60, 61, 62, 63]
				},
				{
					"name": "top-lid",
					"origin": [8, 8, 8],
					"children": [64, 65, 66, 67,
						{
							"name": "central",
							"origin": [8, 8, 8],
							"children": [68, 69, 70, 71]
						}
					]
				},
				{
					"name": "sides",
					"origin": [8, 8, 8],
					"children": [72, 73, 74, 75, 76, 77, 78, 79, 80, 81, 82, 83,
						{
							"name": "sockets",
							"origin": [8, 8, 8],
							"children": [84, 85, 86, 87]
						}
					]
				}
			]
		}
	],
      "overrides": [
              {
                      "predicate": {
                              "open": 0
                      },
         "model": "tardis:item/vm_alex"
              },
              {
                      "predicate": {
                              "open": 1
                      },
         "model": "tardis:item/vm_alex_open"
              }
     ]
}