{
	"credit": "Made with Blockbench",
	"texture_size": [32, 32],
	"textures": {
		"26": "tardis:item/sonics/mk6_emitter"
	},
	"elements": [
		{
			"from": [6.91, 1.5, -1],
			"to": [7.16, 1.75, 1.5],
			"rotation": {"angle": 0, "axis": "y", "origin": [8, 1.625, 8]},
			"faces": {
				"north": {"uv": [6, 6, 6.5, 6.5], "texture": "#26"},
				"east": {"uv": [0, 0, 1.5, 0.5], "texture": "#26"},
				"south": {"uv": [6, 0, 6.5, 0.5], "texture": "#26"},
				"west": {"uv": [0, 0.5, 1.5, 1], "texture": "#26"},
				"up": {"uv": [0.5, 2.5, 0, 1], "texture": "#26"},
				"down": {"uv": [1, 1, 0.5, 2.5], "texture": "#26"}
			}
		},
		{
			"from": [8.8475, 1.5, -1],
			"to": [9.06625, 1.75, 1.5],
			"rotation": {"angle": 0, "axis": "y", "origin": [8, 1.625, 8]},
			"faces": {
				"north": {"uv": [6, 0.5, 6.5, 1], "texture": "#26"},
				"east": {"uv": [1, 1, 2.5, 1.5], "texture": "#26"},
				"south": {"uv": [6, 1, 6.5, 1.5], "texture": "#26"},
				"west": {"uv": [1, 1.5, 2.5, 2], "texture": "#26"},
				"up": {"uv": [1.5, 3.5, 1, 2], "texture": "#26"},
				"down": {"uv": [2, 2, 1.5, 3.5], "texture": "#26"}
			}
		},
		{
			"from": [6.95172, 1.54713, -1.23],
			"to": [9.02547, 1.69463, -0.9575],
			"rotation": {"angle": 0, "axis": "y", "origin": [8.00107, 1.62088, 6.54]},
			"faces": {
				"north": {"uv": [4, 1, 5, 1.5], "texture": "#26"},
				"east": {"uv": [6, 1.5, 6.5, 2], "texture": "#26"},
				"south": {"uv": [4, 1.5, 5, 2], "texture": "#26"},
				"west": {"uv": [6, 2, 6.5, 2.5], "texture": "#26"},
				"up": {"uv": [5, 2.5, 4, 2], "texture": "#26"},
				"down": {"uv": [5, 2.5, 4, 3], "texture": "#26"}
			}
		},
		{
			"from": [7.00375, 1.5, -1],
			"to": [7.25375, 1.75, 1.5],
			"rotation": {"angle": -45, "axis": "z", "origin": [8, 1.625, 8]},
			"faces": {
				"north": {"uv": [6, 2.5, 6.5, 3], "texture": "#26"},
				"east": {"uv": [1.5, 0, 3, 0.5], "texture": "#26"},
				"south": {"uv": [6, 3, 6.5, 3.5], "texture": "#26"},
				"west": {"uv": [1.5, 0.5, 3, 1], "texture": "#26"},
				"up": {"uv": [2.5, 3.5, 2, 2], "texture": "#26"},
				"down": {"uv": [0.5, 2.5, 0, 4], "texture": "#26"}
			}
		},
		{
			"from": [8.87875, 1.5, -1],
			"to": [9.12875, 1.75, 1.5],
			"rotation": {"angle": -45, "axis": "z", "origin": [8, 1.625, 8]},
			"faces": {
				"north": {"uv": [6, 3.5, 6.5, 4], "texture": "#26"},
				"east": {"uv": [2.5, 2.5, 4, 3], "texture": "#26"},
				"south": {"uv": [6, 5, 6.5, 5.5], "texture": "#26"},
				"west": {"uv": [2.5, 1, 4, 1.5], "texture": "#26"},
				"up": {"uv": [1, 4, 0.5, 2.5], "texture": "#26"},
				"down": {"uv": [3, 3, 2.5, 4.5], "texture": "#26"}
			}
		},
		{
			"from": [7.03047, 1.54713, -1.23],
			"to": [9.08297, 1.69463, -0.9575],
			"rotation": {"angle": -45, "axis": "z", "origin": [8.00107, 1.62088, 6.54]},
			"faces": {
				"north": {"uv": [3.5, 3.5, 4.5, 4], "texture": "#26"},
				"east": {"uv": [4.5, 6, 5, 6.5], "texture": "#26"},
				"south": {"uv": [3.5, 3, 4.5, 3.5], "texture": "#26"},
				"west": {"uv": [5, 6, 5.5, 6.5], "texture": "#26"},
				"up": {"uv": [1, 4.5, 0, 4], "texture": "#26"},
				"down": {"uv": [4.5, 4, 3.5, 4.5], "texture": "#26"}
			}
		},
		{
			"from": [6.87875, 1.5, -1],
			"to": [7.12875, 1.75, 1.5],
			"rotation": {"angle": 45, "axis": "z", "origin": [8, 1.625, 8]},
			"faces": {
				"north": {"uv": [6, 5.5, 6.5, 6], "texture": "#26"},
				"east": {"uv": [2.5, 1.5, 4, 2], "texture": "#26"},
				"south": {"uv": [1, 6.5, 1.5, 7], "texture": "#26"},
				"west": {"uv": [2.5, 2, 4, 2.5], "texture": "#26"},
				"up": {"uv": [3.5, 4.5, 3, 3], "texture": "#26"},
				"down": {"uv": [1.5, 3.5, 1, 5], "texture": "#26"}
			}
		},
		{
			"from": [8.785, 1.5, -1],
			"to": [9.00375, 1.75, 1.5],
			"rotation": {"angle": 45, "axis": "z", "origin": [8, 1.625, 8]},
			"faces": {
				"north": {"uv": [1.5, 6.5, 2, 7], "texture": "#26"},
				"east": {"uv": [3, 0, 4.5, 0.5], "texture": "#26"},
				"south": {"uv": [2, 6.5, 2.5, 7], "texture": "#26"},
				"west": {"uv": [3, 0.5, 4.5, 1], "texture": "#26"},
				"up": {"uv": [2, 5, 1.5, 3.5], "texture": "#26"},
				"down": {"uv": [2.5, 3.5, 2, 5], "texture": "#26"}
			}
		},
		{
			"from": [6.92547, 1.54713, -1.23],
			"to": [8.97297, 1.69463, -0.9575],
			"rotation": {"angle": 45, "axis": "z", "origin": [8.00107, 1.62088, 6.54]},
			"faces": {
				"north": {"uv": [0, 4.5, 1, 5], "texture": "#26"},
				"east": {"uv": [2.5, 6.5, 3, 7], "texture": "#26"},
				"south": {"uv": [2.5, 4.5, 3.5, 5], "texture": "#26"},
				"west": {"uv": [3, 6.5, 3.5, 7], "texture": "#26"},
				"up": {"uv": [4.5, 5, 3.5, 4.5], "texture": "#26"},
				"down": {"uv": [5.5, 4.5, 4.5, 5], "texture": "#26"}
			}
		},
		{
			"name": "octagon",
			"from": [3.10956, 2.64843, 0.5754],
			"to": [3.76169, 4.22283, 1.0571],
			"rotation": {"angle": 45, "axis": "z", "origin": [8, 8, 8]},
			"faces": {
				"north": {"uv": [4.5, 0, 5, 1], "texture": "#26"},
				"east": {"uv": [4.5, 3, 5, 4], "texture": "#26"},
				"south": {"uv": [0, 5, 0.5, 6], "texture": "#26"},
				"west": {"uv": [0.5, 5, 1, 6], "texture": "#26"},
				"up": {"uv": [5, 7, 4.5, 6.5], "texture": "#26"},
				"down": {"uv": [5.5, 6.5, 5, 7], "texture": "#26"}
			}
		},
		{
			"name": "octagon",
			"from": [7.67393, 0.7578, 0.5754],
			"to": [8.32607, 2.3322, 1.0571],
			"faces": {
				"north": {"uv": [1, 5, 1.5, 6], "texture": "#26"},
				"east": {"uv": [1.5, 5, 2, 6], "texture": "#26"},
				"south": {"uv": [2, 5, 2.5, 6], "texture": "#26"},
				"west": {"uv": [2.5, 5, 3, 6], "texture": "#26"},
				"up": {"uv": [6, 7, 5.5, 6.5], "texture": "#26"},
				"down": {"uv": [6.5, 6.5, 6, 7], "texture": "#26"}
			}
		},
		{
			"name": "octagon",
			"from": [2.64843, 3.10956, 0.5754],
			"to": [4.22283, 3.76169, 1.0571],
			"rotation": {"angle": 45, "axis": "z", "origin": [8, 8, 8]},
			"faces": {
				"north": {"uv": [4.5, 4, 5.5, 4.5], "texture": "#26"},
				"east": {"uv": [6.5, 6.5, 7, 7], "texture": "#26"},
				"south": {"uv": [3, 5, 4, 5.5], "texture": "#26"},
				"west": {"uv": [6.5, 0, 7, 0.5], "texture": "#26"},
				"up": {"uv": [5, 5.5, 4, 5], "texture": "#26"},
				"down": {"uv": [6, 5, 5, 5.5], "texture": "#26"}
			}
		},
		{
			"name": "octagon",
			"from": [7.2128, 1.21893, 0.5754],
			"to": [8.7872, 1.87107, 1.0571],
			"faces": {
				"north": {"uv": [5, 0, 6, 0.5], "texture": "#26"},
				"east": {"uv": [6.5, 0.5, 7, 1], "texture": "#26"},
				"south": {"uv": [5, 0.5, 6, 1], "texture": "#26"},
				"west": {"uv": [6.5, 1, 7, 1.5], "texture": "#26"},
				"up": {"uv": [6, 1.5, 5, 1], "texture": "#26"},
				"down": {"uv": [6, 1.5, 5, 2], "texture": "#26"}
			}
		},
		{
			"name": "octagon",
			"from": [4.87012, 2.25119, -1.35289],
			"to": [5.28748, 3.25881, 0.73539],
			"rotation": {"angle": 45, "axis": "z", "origin": [8, 5.6762, 5.05385]},
			"faces": {
				"north": {"uv": [6.5, 1.5, 7, 2], "texture": "#26"},
				"east": {"uv": [5, 2, 6, 2.5], "texture": "#26"},
				"south": {"uv": [6.5, 2, 7, 2.5], "texture": "#26"},
				"west": {"uv": [5, 2.5, 6, 3], "texture": "#26"},
				"up": {"uv": [5.5, 4, 5, 3], "texture": "#26"},
				"down": {"uv": [3.5, 5.5, 3, 6.5], "texture": "#26"}
			}
		},
		{
			"name": "octagon",
			"from": [7.79132, 1.04119, -1.35289],
			"to": [8.20868, 2.04881, 0.73539],
			"rotation": {"angle": 0, "axis": "y", "origin": [8, 5.6762, 5.05385]},
			"faces": {
				"north": {"uv": [6.5, 2.5, 7, 3], "texture": "#26"},
				"east": {"uv": [3.5, 5.5, 4.5, 6], "texture": "#26"},
				"south": {"uv": [6.5, 3, 7, 3.5], "texture": "#26"},
				"west": {"uv": [4.5, 5.5, 5.5, 6], "texture": "#26"},
				"up": {"uv": [6, 6.5, 5.5, 5.5], "texture": "#26"},
				"down": {"uv": [6, 3, 5.5, 4], "texture": "#26"}
			}
		},
		{
			"name": "octagon",
			"from": [4.57499, 2.54632, -1.35289],
			"to": [5.58261, 2.96368, 0.73539],
			"rotation": {"angle": 45, "axis": "z", "origin": [8, 5.6762, 5.05385]},
			"faces": {
				"north": {"uv": [6.5, 3.5, 7, 4], "texture": "#26"},
				"east": {"uv": [5.5, 4, 6.5, 4.5], "texture": "#26"},
				"south": {"uv": [6.5, 4, 7, 4.5], "texture": "#26"},
				"west": {"uv": [5.5, 4.5, 6.5, 5], "texture": "#26"},
				"up": {"uv": [0.5, 7, 0, 6], "texture": "#26"},
				"down": {"uv": [1, 6, 0.5, 7], "texture": "#26"}
			}
		},
		{
			"name": "octagon",
			"from": [7.49619, 1.33632, -1.35289],
			"to": [8.50381, 1.75368, 0.73539],
			"rotation": {"angle": 0, "axis": "y", "origin": [8, 5.6762, 5.05385]},
			"faces": {
				"north": {"uv": [6.5, 4.5, 7, 5], "texture": "#26"},
				"east": {"uv": [1, 6, 2, 6.5], "texture": "#26"},
				"south": {"uv": [6.5, 5, 7, 5.5], "texture": "#26"},
				"west": {"uv": [2, 6, 3, 6.5], "texture": "#26"},
				"up": {"uv": [4, 7, 3.5, 6], "texture": "#26"},
				"down": {"uv": [4.5, 6, 4, 7], "texture": "#26"}
			}
		},
		{
			"name": "octagon",
			"from": [5.74648, 2.05346, -3.11053],
			"to": [6.04699, 2.77894, -2.19447],
			"rotation": {"angle": 45, "axis": "z", "origin": [8, 4.51946, 3.20232]},
			"faces": {
				"north": {"uv": [6.5, 5.5, 7, 6], "texture": "#26"},
				"east": {"uv": [6.5, 6, 7, 6.5], "texture": "#26"},
				"south": {"uv": [0, 7, 0.5, 7.5], "texture": "#26"},
				"west": {"uv": [0.5, 7, 1, 7.5], "texture": "#26"},
				"up": {"uv": [1.5, 7.5, 1, 7], "texture": "#26"},
				"down": {"uv": [2, 7, 1.5, 7.5], "texture": "#26"}
			}
		},
		{
			"name": "octagon",
			"from": [7.84975, 1.18226, -3.11053],
			"to": [8.15025, 1.90774, -2.19447],
			"rotation": {"angle": 0, "axis": "y", "origin": [8, 4.51946, 3.20232]},
			"faces": {
				"north": {"uv": [2, 7, 2.5, 7.5], "texture": "#26"},
				"east": {"uv": [2.5, 7, 3, 7.5], "texture": "#26"},
				"south": {"uv": [3, 7, 3.5, 7.5], "texture": "#26"},
				"west": {"uv": [3.5, 7, 4, 7.5], "texture": "#26"},
				"up": {"uv": [4.5, 7.5, 4, 7], "texture": "#26"},
				"down": {"uv": [5, 7, 4.5, 7.5], "texture": "#26"}
			}
		},
		{
			"name": "octagon",
			"from": [5.53399, 2.26595, -3.11053],
			"to": [6.25948, 2.56645, -2.19447],
			"rotation": {"angle": 45, "axis": "z", "origin": [8, 4.51946, 3.20232]},
			"faces": {
				"north": {"uv": [5, 7, 5.5, 7.5], "texture": "#26"},
				"east": {"uv": [5.5, 7, 6, 7.5], "texture": "#26"},
				"south": {"uv": [6, 7, 6.5, 7.5], "texture": "#26"},
				"west": {"uv": [6.5, 7, 7, 7.5], "texture": "#26"},
				"up": {"uv": [7.5, 7.5, 7, 7], "texture": "#26"},
				"down": {"uv": [7.5, 0, 7, 0.5], "texture": "#26"}
			}
		},
		{
			"name": "octagon",
			"from": [7.63726, 1.39475, -3.11053],
			"to": [8.36274, 1.69525, -2.19447],
			"rotation": {"angle": 0, "axis": "y", "origin": [8, 4.51946, 3.20232]},
			"faces": {
				"north": {"uv": [7, 0.5, 7.5, 1], "texture": "#26"},
				"east": {"uv": [7, 1, 7.5, 1.5], "texture": "#26"},
				"south": {"uv": [7, 1.5, 7.5, 2], "texture": "#26"},
				"west": {"uv": [7, 2, 7.5, 2.5], "texture": "#26"},
				"up": {"uv": [7.5, 3, 7, 2.5], "texture": "#26"},
				"down": {"uv": [7.5, 3, 7, 3.5], "texture": "#26"}
			}
		},
		{
			"name": "octagon",
			"from": [4.84508, 2.25684, -2.96875],
			"to": [5.26578, 3.27252, -2.39875],
			"rotation": {"angle": 45, "axis": "z", "origin": [8, 5.70925, 5.438]},
			"faces": {
				"north": {"uv": [7, 3.5, 7.5, 4], "texture": "#26"},
				"east": {"uv": [7, 4, 7.5, 4.5], "texture": "#26"},
				"south": {"uv": [7, 4.5, 7.5, 5], "texture": "#26"},
				"west": {"uv": [7, 5, 7.5, 5.5], "texture": "#26"},
				"up": {"uv": [7.5, 6, 7, 5.5], "texture": "#26"},
				"down": {"uv": [7.5, 6, 7, 6.5], "texture": "#26"}
			}
		},
		{
			"name": "octagon",
			"from": [7.78965, 1.03716, -2.96875],
			"to": [8.21035, 2.05284, -2.39875],
			"rotation": {"angle": 0, "axis": "y", "origin": [8, 5.70925, 5.438]},
			"faces": {
				"north": {"uv": [7, 6.5, 7.5, 7], "texture": "#26"},
				"east": {"uv": [0, 7.5, 0.5, 8], "texture": "#26"},
				"south": {"uv": [0.5, 7.5, 1, 8], "texture": "#26"},
				"west": {"uv": [1, 7.5, 1.5, 8], "texture": "#26"},
				"up": {"uv": [2, 8, 1.5, 7.5], "texture": "#26"},
				"down": {"uv": [2.5, 7.5, 2, 8], "texture": "#26"}
			}
		},
		{
			"name": "octagon",
			"from": [4.54759, 2.55433, -2.96875],
			"to": [5.56327, 2.97503, -2.39875],
			"rotation": {"angle": 45, "axis": "z", "origin": [8, 5.70925, 5.438]},
			"faces": {
				"north": {"uv": [2.5, 7.5, 3, 8], "texture": "#26"},
				"east": {"uv": [3, 7.5, 3.5, 8], "texture": "#26"},
				"south": {"uv": [3.5, 7.5, 4, 8], "texture": "#26"},
				"west": {"uv": [4, 7.5, 4.5, 8], "texture": "#26"},
				"up": {"uv": [5, 8, 4.5, 7.5], "texture": "#26"},
				"down": {"uv": [5.5, 7.5, 5, 8], "texture": "#26"}
			}
		},
		{
			"name": "octagon",
			"from": [7.49216, 1.33465, -2.96875],
			"to": [8.50784, 1.75535, -2.39875],
			"rotation": {"angle": 0, "axis": "y", "origin": [8, 5.70925, 5.438]},
			"faces": {
				"north": {"uv": [5.5, 7.5, 6, 8], "texture": "#26"},
				"east": {"uv": [6, 7.5, 6.5, 8], "texture": "#26"},
				"south": {"uv": [6.5, 7.5, 7, 8], "texture": "#26"},
				"west": {"uv": [7, 7.5, 7.5, 8], "texture": "#26"},
				"up": {"uv": [8, 8, 7.5, 7.5], "texture": "#26"},
				"down": {"uv": [8, 0, 7.5, 0.5], "texture": "#26"}
			}
		},
		{
			"name": "octagon",
			"from": [3.71201, 2.51249, -2.06656],
			"to": [4.28381, 3.89295, -1.51969],
			"rotation": {"angle": 45, "axis": "z", "origin": [8, 7.20481, 7.72239]},
			"faces": {
				"north": {"uv": [7.5, 0.5, 8, 1], "texture": "#26"},
				"east": {"uv": [7.5, 1, 8, 1.5], "texture": "#26"},
				"south": {"uv": [7.5, 1.5, 8, 2], "texture": "#26"},
				"west": {"uv": [7.5, 2, 8, 2.5], "texture": "#26"},
				"up": {"uv": [8, 3, 7.5, 2.5], "texture": "#26"},
				"down": {"uv": [8, 3, 7.5, 3.5], "texture": "#26"}
			}
		},
		{
			"name": "octagon",
			"from": [7.7141, 0.85477, -2.06656],
			"to": [8.2859, 2.23523, -1.51969],
			"rotation": {"angle": 0, "axis": "y", "origin": [8, 7.20481, 7.72239]},
			"faces": {
				"north": {"uv": [7.5, 3.5, 8, 4], "texture": "#26"},
				"east": {"uv": [7.5, 4, 8, 4.5], "texture": "#26"},
				"south": {"uv": [7.5, 4.5, 8, 5], "texture": "#26"},
				"west": {"uv": [7.5, 5, 8, 5.5], "texture": "#26"},
				"up": {"uv": [8, 6, 7.5, 5.5], "texture": "#26"},
				"down": {"uv": [8, 6, 7.5, 6.5], "texture": "#26"}
			}
		},
		{
			"name": "octagon",
			"from": [3.30768, 2.91682, -2.06656],
			"to": [4.68813, 3.48862, -1.51969],
			"rotation": {"angle": 45, "axis": "z", "origin": [8, 7.20481, 7.72239]},
			"faces": {
				"north": {"uv": [7.5, 6.5, 8, 7], "texture": "#26"},
				"east": {"uv": [7.5, 7, 8, 7.5], "texture": "#26"},
				"south": {"uv": [0, 8, 0.5, 8.5], "texture": "#26"},
				"west": {"uv": [0.5, 8, 1, 8.5], "texture": "#26"},
				"up": {"uv": [1.5, 8.5, 1, 8], "texture": "#26"},
				"down": {"uv": [2, 8, 1.5, 8.5], "texture": "#26"}
			}
		},
		{
			"name": "octagon",
			"from": [7.30977, 1.2591, -2.06656],
			"to": [8.69023, 1.8309, -1.51969],
			"rotation": {"angle": 0, "axis": "y", "origin": [8, 7.20481, 7.72239]},
			"faces": {
				"north": {"uv": [2, 8, 2.5, 8.5], "texture": "#26"},
				"east": {"uv": [2.5, 8, 3, 8.5], "texture": "#26"},
				"south": {"uv": [3, 8, 3.5, 8.5], "texture": "#26"},
				"west": {"uv": [3.5, 8, 4, 8.5], "texture": "#26"},
				"up": {"uv": [4.5, 8.5, 4, 8], "texture": "#26"},
				"down": {"uv": [5, 8, 4.5, 8.5], "texture": "#26"}
			}
		},
		{
			"name": "octagon",
			"from": [4.25556, 2.38985, -2.22259],
			"to": [4.75488, 3.59532, -1.36366],
			"rotation": {"angle": 45, "axis": "z", "origin": [8, 6.48737, 6.5213]},
			"faces": {
				"north": {"uv": [5, 8, 5.5, 8.5], "texture": "#26"},
				"east": {"uv": [5.5, 8, 6, 8.5], "texture": "#26"},
				"south": {"uv": [6, 8, 6.5, 8.5], "texture": "#26"},
				"west": {"uv": [6.5, 8, 7, 8.5], "texture": "#26"},
				"up": {"uv": [7.5, 8.5, 7, 8], "texture": "#26"},
				"down": {"uv": [8, 8, 7.5, 8.5], "texture": "#26"}
			}
		},
		{
			"name": "octagon",
			"from": [7.75034, 0.94227, -2.22259],
			"to": [8.24966, 2.14773, -1.36366],
			"rotation": {"angle": 0, "axis": "y", "origin": [8, 6.48737, 6.5213]},
			"faces": {
				"north": {"uv": [8, 8, 8.5, 8.5], "texture": "#26"},
				"east": {"uv": [8, 0, 8.5, 0.5], "texture": "#26"},
				"south": {"uv": [8, 0.5, 8.5, 1], "texture": "#26"},
				"west": {"uv": [8, 1, 8.5, 1.5], "texture": "#26"},
				"up": {"uv": [8.5, 2, 8, 1.5], "texture": "#26"},
				"down": {"uv": [8.5, 2, 8, 2.5], "texture": "#26"}
			}
		},
		{
			"name": "octagon",
			"from": [3.90249, 2.74293, -2.22259],
			"to": [5.10795, 3.24225, -1.36366],
			"rotation": {"angle": 45, "axis": "z", "origin": [8, 6.48737, 6.5213]},
			"faces": {
				"north": {"uv": [8, 2.5, 8.5, 3], "texture": "#26"},
				"east": {"uv": [8, 3, 8.5, 3.5], "texture": "#26"},
				"south": {"uv": [8, 3.5, 8.5, 4], "texture": "#26"},
				"west": {"uv": [8, 4, 8.5, 4.5], "texture": "#26"},
				"up": {"uv": [8.5, 5, 8, 4.5], "texture": "#26"},
				"down": {"uv": [8.5, 5, 8, 5.5], "texture": "#26"}
			}
		},
		{
			"name": "octagon",
			"from": [7.39727, 1.29534, -2.22259],
			"to": [8.60273, 1.79466, -1.36366],
			"rotation": {"angle": 0, "axis": "y", "origin": [8, 6.48737, 6.5213]},
			"faces": {
				"north": {"uv": [8, 5.5, 8.5, 6], "texture": "#26"},
				"east": {"uv": [8, 6, 8.5, 6.5], "texture": "#26"},
				"south": {"uv": [8, 6.5, 8.5, 7], "texture": "#26"},
				"west": {"uv": [8, 7, 8.5, 7.5], "texture": "#26"},
				"up": {"uv": [8.5, 8, 8, 7.5], "texture": "#26"},
				"down": {"uv": [0.5, 8.5, 0, 9], "texture": "#26"}
			}
		},
		{
			"name": "octagon",
			"from": [3.15666, 2.74164, 0.35536],
			"to": [3.74358, 4.1586, 0.45139],
			"rotation": {"angle": 45, "axis": "z", "origin": [8, 8, 8]},
			"faces": {
				"north": {"uv": [0.5, 8.5, 1, 9], "texture": "#26"},
				"east": {"uv": [1, 8.5, 1.5, 9], "texture": "#26"},
				"south": {"uv": [1.5, 8.5, 2, 9], "texture": "#26"},
				"west": {"uv": [2, 8.5, 2.5, 9], "texture": "#26"},
				"up": {"uv": [3, 9, 2.5, 8.5], "texture": "#26"},
				"down": {"uv": [3.5, 8.5, 3, 9], "texture": "#26"}
			}
		},
		{
			"name": "octagon",
			"from": [7.70654, 0.85702, 0.35536],
			"to": [8.29346, 2.27398, 0.45139],
			"faces": {
				"north": {"uv": [3.5, 8.5, 4, 9], "texture": "#26"},
				"east": {"uv": [4, 8.5, 4.5, 9], "texture": "#26"},
				"south": {"uv": [4.5, 8.5, 5, 9], "texture": "#26"},
				"west": {"uv": [5, 8.5, 5.5, 9], "texture": "#26"},
				"up": {"uv": [6, 9, 5.5, 8.5], "texture": "#26"},
				"down": {"uv": [6.5, 8.5, 6, 9], "texture": "#26"}
			}
		},
		{
			"name": "octagon",
			"from": [2.74164, 3.15666, 0.35536],
			"to": [4.1586, 3.74358, 0.45139],
			"rotation": {"angle": 45, "axis": "z", "origin": [8, 8, 8]},
			"faces": {
				"north": {"uv": [6.5, 8.5, 7, 9], "texture": "#26"},
				"east": {"uv": [7, 8.5, 7.5, 9], "texture": "#26"},
				"south": {"uv": [7.5, 8.5, 8, 9], "texture": "#26"},
				"west": {"uv": [8, 8.5, 8.5, 9], "texture": "#26"},
				"up": {"uv": [9, 9, 8.5, 8.5], "texture": "#26"},
				"down": {"uv": [9, 0, 8.5, 0.5], "texture": "#26"}
			}
		},
		{
			"name": "octagon",
			"from": [7.29152, 1.27204, 0.35536],
			"to": [8.70848, 1.85896, 0.45139],
			"faces": {
				"north": {"uv": [8.5, 0.5, 9, 1], "texture": "#26"},
				"east": {"uv": [8.5, 1, 9, 1.5], "texture": "#26"},
				"south": {"uv": [8.5, 1.5, 9, 2], "texture": "#26"},
				"west": {"uv": [8.5, 2, 9, 2.5], "texture": "#26"},
				"up": {"uv": [9, 3, 8.5, 2.5], "texture": "#26"},
				"down": {"uv": [9, 3, 8.5, 3.5], "texture": "#26"}
			}
		},
		{
			"name": "octagon",
			"from": [3.15666, 2.74164, 0.10536],
			"to": [3.74358, 4.1586, 0.20139],
			"rotation": {"angle": 45, "axis": "z", "origin": [8, 8, 8]},
			"faces": {
				"north": {"uv": [8.5, 3.5, 9, 4], "texture": "#26"},
				"east": {"uv": [8.5, 4, 9, 4.5], "texture": "#26"},
				"south": {"uv": [8.5, 4.5, 9, 5], "texture": "#26"},
				"west": {"uv": [8.5, 5, 9, 5.5], "texture": "#26"},
				"up": {"uv": [9, 6, 8.5, 5.5], "texture": "#26"},
				"down": {"uv": [9, 6, 8.5, 6.5], "texture": "#26"}
			}
		},
		{
			"name": "octagon",
			"from": [7.70654, 0.85702, 0.10536],
			"to": [8.29346, 2.27398, 0.20139],
			"faces": {
				"north": {"uv": [8.5, 6.5, 9, 7], "texture": "#26"},
				"east": {"uv": [8.5, 7, 9, 7.5], "texture": "#26"},
				"south": {"uv": [8.5, 7.5, 9, 8], "texture": "#26"},
				"west": {"uv": [8.5, 8, 9, 8.5], "texture": "#26"},
				"up": {"uv": [0.5, 9.5, 0, 9], "texture": "#26"},
				"down": {"uv": [1, 9, 0.5, 9.5], "texture": "#26"}
			}
		},
		{
			"name": "octagon",
			"from": [2.74164, 3.15666, 0.10536],
			"to": [4.1586, 3.74358, 0.20139],
			"rotation": {"angle": 45, "axis": "z", "origin": [8, 8, 8]},
			"faces": {
				"north": {"uv": [1, 9, 1.5, 9.5], "texture": "#26"},
				"east": {"uv": [1.5, 9, 2, 9.5], "texture": "#26"},
				"south": {"uv": [2, 9, 2.5, 9.5], "texture": "#26"},
				"west": {"uv": [2.5, 9, 3, 9.5], "texture": "#26"},
				"up": {"uv": [3.5, 9.5, 3, 9], "texture": "#26"},
				"down": {"uv": [4, 9, 3.5, 9.5], "texture": "#26"}
			}
		},
		{
			"name": "octagon",
			"from": [7.29152, 1.27204, 0.10536],
			"to": [8.70848, 1.85896, 0.20139],
			"faces": {
				"north": {"uv": [4, 9, 4.5, 9.5], "texture": "#26"},
				"east": {"uv": [4.5, 9, 5, 9.5], "texture": "#26"},
				"south": {"uv": [5, 9, 5.5, 9.5], "texture": "#26"},
				"west": {"uv": [5.5, 9, 6, 9.5], "texture": "#26"},
				"up": {"uv": [6.5, 9.5, 6, 9], "texture": "#26"},
				"down": {"uv": [7, 9, 6.5, 9.5], "texture": "#26"}
			}
		},
		{
			"name": "octagon",
			"from": [3.15666, 2.74164, -0.14464],
			"to": [3.74358, 4.1586, -0.04861],
			"rotation": {"angle": 45, "axis": "z", "origin": [8, 8, 8]},
			"faces": {
				"north": {"uv": [7, 9, 7.5, 9.5], "texture": "#26"},
				"east": {"uv": [7.5, 9, 8, 9.5], "texture": "#26"},
				"south": {"uv": [8, 9, 8.5, 9.5], "texture": "#26"},
				"west": {"uv": [8.5, 9, 9, 9.5], "texture": "#26"},
				"up": {"uv": [9.5, 9.5, 9, 9], "texture": "#26"},
				"down": {"uv": [9.5, 0, 9, 0.5], "texture": "#26"}
			}
		},
		{
			"name": "octagon",
			"from": [7.70654, 0.85702, -0.14464],
			"to": [8.29346, 2.27398, -0.04861],
			"faces": {
				"north": {"uv": [9, 0.5, 9.5, 1], "texture": "#26"},
				"east": {"uv": [9, 1, 9.5, 1.5], "texture": "#26"},
				"south": {"uv": [9, 1.5, 9.5, 2], "texture": "#26"},
				"west": {"uv": [9, 2, 9.5, 2.5], "texture": "#26"},
				"up": {"uv": [9.5, 3, 9, 2.5], "texture": "#26"},
				"down": {"uv": [9.5, 3, 9, 3.5], "texture": "#26"}
			}
		},
		{
			"name": "octagon",
			"from": [2.74164, 3.15666, -0.14464],
			"to": [4.1586, 3.74358, -0.04861],
			"rotation": {"angle": 45, "axis": "z", "origin": [8, 8, 8]},
			"faces": {
				"north": {"uv": [9, 3.5, 9.5, 4], "texture": "#26"},
				"east": {"uv": [9, 4, 9.5, 4.5], "texture": "#26"},
				"south": {"uv": [9, 4.5, 9.5, 5], "texture": "#26"},
				"west": {"uv": [9, 5, 9.5, 5.5], "texture": "#26"},
				"up": {"uv": [9.5, 6, 9, 5.5], "texture": "#26"},
				"down": {"uv": [9.5, 6, 9, 6.5], "texture": "#26"}
			}
		},
		{
			"name": "octagon",
			"from": [7.29152, 1.27204, -0.14464],
			"to": [8.70848, 1.85896, -0.04861],
			"faces": {
				"north": {"uv": [9, 6.5, 9.5, 7], "texture": "#26"},
				"east": {"uv": [9, 7, 9.5, 7.5], "texture": "#26"},
				"south": {"uv": [9, 7.5, 9.5, 8], "texture": "#26"},
				"west": {"uv": [9, 8, 9.5, 8.5], "texture": "#26"},
				"up": {"uv": [9.5, 9, 9, 8.5], "texture": "#26"},
				"down": {"uv": [0.5, 9.5, 0, 10], "texture": "#26"}
			}
		},
		{
			"name": "octagon",
			"from": [3.15666, 2.74164, -0.39464],
			"to": [3.74358, 4.1586, -0.29861],
			"rotation": {"angle": 45, "axis": "z", "origin": [8, 8, 8]},
			"faces": {
				"north": {"uv": [0.5, 9.5, 1, 10], "texture": "#26"},
				"east": {"uv": [1, 9.5, 1.5, 10], "texture": "#26"},
				"south": {"uv": [1.5, 9.5, 2, 10], "texture": "#26"},
				"west": {"uv": [2, 9.5, 2.5, 10], "texture": "#26"},
				"up": {"uv": [3, 10, 2.5, 9.5], "texture": "#26"},
				"down": {"uv": [3.5, 9.5, 3, 10], "texture": "#26"}
			}
		},
		{
			"name": "octagon",
			"from": [7.70654, 0.85702, -0.39464],
			"to": [8.29346, 2.27398, -0.29861],
			"faces": {
				"north": {"uv": [3.5, 9.5, 4, 10], "texture": "#26"},
				"east": {"uv": [4, 9.5, 4.5, 10], "texture": "#26"},
				"south": {"uv": [4.5, 9.5, 5, 10], "texture": "#26"},
				"west": {"uv": [5, 9.5, 5.5, 10], "texture": "#26"},
				"up": {"uv": [6, 10, 5.5, 9.5], "texture": "#26"},
				"down": {"uv": [6.5, 9.5, 6, 10], "texture": "#26"}
			}
		},
		{
			"name": "octagon",
			"from": [2.74164, 3.15666, -0.39464],
			"to": [4.1586, 3.74358, -0.29861],
			"rotation": {"angle": 45, "axis": "z", "origin": [8, 8, 8]},
			"faces": {
				"north": {"uv": [6.5, 9.5, 7, 10], "texture": "#26"},
				"east": {"uv": [7, 9.5, 7.5, 10], "texture": "#26"},
				"south": {"uv": [7.5, 9.5, 8, 10], "texture": "#26"},
				"west": {"uv": [8, 9.5, 8.5, 10], "texture": "#26"},
				"up": {"uv": [9, 10, 8.5, 9.5], "texture": "#26"},
				"down": {"uv": [9.5, 9.5, 9, 10], "texture": "#26"}
			}
		},
		{
			"name": "octagon",
			"from": [7.29152, 1.27204, -0.39464],
			"to": [8.70848, 1.85896, -0.29861],
			"faces": {
				"north": {"uv": [9.5, 9.5, 10, 10], "texture": "#26"},
				"east": {"uv": [9.5, 0, 10, 0.5], "texture": "#26"},
				"south": {"uv": [9.5, 0.5, 10, 1], "texture": "#26"},
				"west": {"uv": [9.5, 1, 10, 1.5], "texture": "#26"},
				"up": {"uv": [10, 2, 9.5, 1.5], "texture": "#26"},
				"down": {"uv": [10, 2, 9.5, 2.5], "texture": "#26"}
			}
		},
		{
			"name": "octagon",
			"from": [3.15666, 2.74164, -0.89464],
			"to": [3.74358, 4.1586, -0.54861],
			"rotation": {"angle": 45, "axis": "z", "origin": [8, 8, 8]},
			"faces": {
				"north": {"uv": [9.5, 2.5, 10, 3], "texture": "#26"},
				"east": {"uv": [9.5, 3, 10, 3.5], "texture": "#26"},
				"south": {"uv": [9.5, 3.5, 10, 4], "texture": "#26"},
				"west": {"uv": [9.5, 4, 10, 4.5], "texture": "#26"},
				"up": {"uv": [10, 5, 9.5, 4.5], "texture": "#26"},
				"down": {"uv": [10, 5, 9.5, 5.5], "texture": "#26"}
			}
		},
		{
			"name": "octagon",
			"from": [7.70654, 0.85702, -0.89464],
			"to": [8.29346, 2.27398, -0.54861],
			"faces": {
				"north": {"uv": [9.5, 5.5, 10, 6], "texture": "#26"},
				"east": {"uv": [9.5, 6, 10, 6.5], "texture": "#26"},
				"south": {"uv": [9.5, 6.5, 10, 7], "texture": "#26"},
				"west": {"uv": [9.5, 7, 10, 7.5], "texture": "#26"},
				"up": {"uv": [10, 8, 9.5, 7.5], "texture": "#26"},
				"down": {"uv": [10, 8, 9.5, 8.5], "texture": "#26"}
			}
		},
		{
			"name": "octagon",
			"from": [2.74164, 3.15666, -0.89464],
			"to": [4.1586, 3.74358, -0.54861],
			"rotation": {"angle": 45, "axis": "z", "origin": [8, 8, 8]},
			"faces": {
				"north": {"uv": [9.5, 8.5, 10, 9], "texture": "#26"},
				"east": {"uv": [9.5, 9, 10, 9.5], "texture": "#26"},
				"south": {"uv": [0, 10, 0.5, 10.5], "texture": "#26"},
				"west": {"uv": [0.5, 10, 1, 10.5], "texture": "#26"},
				"up": {"uv": [1.5, 10.5, 1, 10], "texture": "#26"},
				"down": {"uv": [2, 10, 1.5, 10.5], "texture": "#26"}
			}
		},
		{
			"name": "octagon",
			"from": [7.29152, 1.27204, -0.89464],
			"to": [8.70848, 1.85896, -0.54861],
			"faces": {
				"north": {"uv": [2, 10, 2.5, 10.5], "texture": "#26"},
				"east": {"uv": [2.5, 10, 3, 10.5], "texture": "#26"},
				"south": {"uv": [3, 10, 3.5, 10.5], "texture": "#26"},
				"west": {"uv": [3.5, 10, 4, 10.5], "texture": "#26"},
				"up": {"uv": [4.5, 10.5, 4, 10], "texture": "#26"},
				"down": {"uv": [5, 10, 4.5, 10.5], "texture": "#26"}
			}
		},
		{
			"name": "octagon",
			"from": [3.44726, 2.67107, -1.38426],
			"to": [3.99897, 4.00302, -0.80899],
			"rotation": {"angle": 45, "axis": "z", "origin": [8, 7.61393, 7.4542]},
			"faces": {
				"north": {"uv": [5, 10, 5.5, 10.5], "texture": "#26"},
				"east": {"uv": [5.5, 10, 6, 10.5], "texture": "#26"},
				"south": {"uv": [6, 10, 6.5, 10.5], "texture": "#26"},
				"west": {"uv": [6.5, 10, 7, 10.5], "texture": "#26"},
				"up": {"uv": [7.5, 10.5, 7, 10], "texture": "#26"},
				"down": {"uv": [8, 10, 7.5, 10.5], "texture": "#26"}
			}
		},
		{
			"name": "octagon",
			"from": [7.72415, 0.89953, -1.38426],
			"to": [8.27585, 2.23147, -0.80899],
			"rotation": {"angle": 0, "axis": "y", "origin": [8, 7.61393, 7.4542]},
			"faces": {
				"north": {"uv": [8, 10, 8.5, 10.5], "texture": "#26"},
				"east": {"uv": [8.5, 10, 9, 10.5], "texture": "#26"},
				"south": {"uv": [9, 10, 9.5, 10.5], "texture": "#26"},
				"west": {"uv": [9.5, 10, 10, 10.5], "texture": "#26"},
				"up": {"uv": [10.5, 10.5, 10, 10], "texture": "#26"},
				"down": {"uv": [10.5, 0, 10, 0.5], "texture": "#26"}
			}
		},
		{
			"name": "octagon",
			"from": [3.05714, 3.06119, -1.38426],
			"to": [4.38909, 3.6129, -0.80899],
			"rotation": {"angle": 45, "axis": "z", "origin": [8, 7.61393, 7.4542]},
			"faces": {
				"north": {"uv": [10, 0.5, 10.5, 1], "texture": "#26"},
				"east": {"uv": [10, 1, 10.5, 1.5], "texture": "#26"},
				"south": {"uv": [10, 1.5, 10.5, 2], "texture": "#26"},
				"west": {"uv": [10, 2, 10.5, 2.5], "texture": "#26"},
				"up": {"uv": [10.5, 3, 10, 2.5], "texture": "#26"},
				"down": {"uv": [10.5, 3, 10, 3.5], "texture": "#26"}
			}
		},
		{
			"name": "octagon",
			"from": [7.33403, 1.28965, -1.38426],
			"to": [8.66597, 1.84135, -0.80899],
			"rotation": {"angle": 0, "axis": "y", "origin": [8, 7.61393, 7.4542]},
			"faces": {
				"north": {"uv": [10, 3.5, 10.5, 4], "texture": "#26"},
				"east": {"uv": [10, 4, 10.5, 4.5], "texture": "#26"},
				"south": {"uv": [10, 4.5, 10.5, 5], "texture": "#26"},
				"west": {"uv": [10, 5, 10.5, 5.5], "texture": "#26"},
				"up": {"uv": [10.5, 6, 10, 5.5], "texture": "#26"},
				"down": {"uv": [10.5, 6, 10, 6.5], "texture": "#26"}
			}
		}
	],
	"display": {
		"thirdperson_righthand": {
			"rotation": [90, 0, 0],
			"translation": [0, 0, 3],
			"scale": [0.5, 0.5, 0.5]
		},
		"thirdperson_lefthand": {
			"rotation": [90, 0, 0],
			"translation": [0, 0, 3],
			"scale": [0.5, 0.5, 0.5]
		},
		"firstperson_righthand": {
			"rotation": [90, 0, 30]
		},
		"firstperson_lefthand": {
			"rotation": [90, 0, 30]
		},
		"fixed": {
			"rotation": [90, 45, 0],
			"translation": [1.25, -1.75, 6]
		},
		"ground": {
			"translation": [0, 4, 0]
		},
		"gui": {
			"rotation": [90, 0, 30],
			"translation": [-3, -8, 0]
		}
	}
}