{
	"lines":[
	"Real-Space Controls"
	,"(X, Y, Z)"
	,""
	," These control your time-ship's position in the three main axes."
	,""
	," The magnitude is determined by your Coordinate Increment Modifer"
	]
}
