{
	"lines":[
		"The Compartment with a blue door is the Component Panel, explained more in the Subsystems section.", 
		"", 
		"The Compartment with a yellow door is the charging panel, charging any Artron-capable items added to it"
	]
}