{
	"lines":[
	"Atrium Module"
	,"" 
	,"An Upgrade to the deamaterialization circuit. The Atrium Module allows you to build an exterior atrium for your time-ship that travels with it." 
	,"The Atrium area must be square of a maximum size no-"
	]
}