{
	"lines":[
	"(Atrium cont.)"
	,"Using the Atrium module limits available landing areas for a time-ship."
	,"A time-ship will not land in a location that does not provide adequate open area for it to materialize."
	]
}