{
	"lines":[
	"I don’t know if they’re just happy to be here or too proud to admit they feel it too. Even though we’re a crew of seven, in this ship you can’t help but feel alone. All of time and space."
	]
}