{
	"pages":[
		"tardis:manual/home"
		,"tardis:manual/chapters/maintenance/maintenance"
		,"tardis:manual/chapters/maintenance/maintenance_engine"
		,"tardis:manual/chapters/maintenance/maintenance_engine2"
		,"tardis:manual/chapters/maintenance/maintenance_engine3"
		,"tardis:manual/blank_page"
		,"tardis:manual/chapters/maintenance/maintenance_sub_system"
		,"tardis:manual/chapters/maintenance/maintenance_sub_system2"
		,"tardis:manual/chapters/maintenance/maintenance_sub_system3"
		,"tardis:manual/chapters/maintenance/maintenance_sub_system4"
		,"tardis:manual/chapters/maintenance/maintenance_sub_system5"
		,"tardis:manual/chapters/maintenance/maintenance_sub_system6"
		,"tardis:manual/blank_page"
		,"tardis:manual/chapters/maintenance/maintenance_emotion"
		,"tardis:manual/chapters/maintenance/maintenance_emotion2"
		,"tardis:manual/chapters/maintenance/maintenance_emotion3"
		,"tardis:manual/chapters/maintenance/maintenance_emotion4"
		,"tardis:manual/chapters/maintenance/maintenance_emotion5"
		,"tardis:manual/chapters/maintenance/maintenance_emotion6"
		,"tardis:manual/chapters/maintenance/maintenance_emotion7"
		,"tardis:manual/chapters/maintenance/maintenance_emotion8"
		,"tardis:manual/chapters/maintenance/maintenance_emotion9"
		,"tardis:manual/blank_page"
		,"tardis:manual/chapters/maintenance/maintenance_upgrades"
		,"tardis:manual/chapters/maintenance/maintenance_upgrades2"
		,"tardis:manual/chapters/maintenance/maintenance_upgrades3"
		,"tardis:manual/chapters/maintenance/maintenance_upgrades4"
		,"tardis:manual/blank_page"
		,"tardis:manual/chapters/controls/flight_controls"
		,"tardis:manual/chapters/controls/flight_controls2"
		,"tardis:manual/chapters/controls/flight_controls3"
		,"tardis:manual/chapters/controls/flight_controls4"
		,"tardis:manual/chapters/controls/flight_controls5"
		,"tardis:manual/chapters/controls/flight_controls6"
		,"tardis:manual/chapters/controls/flight_controls7"
		,"tardis:manual/chapters/controls/flight_controls8"
		,"tardis:manual/chapters/controls/flight_controls9"
		,"tardis:manual/chapters/controls/flight_controls10"
		,"tardis:manual/chapters/controls/flight_controls11"
		,"tardis:manual/chapters/controls/flight_controls12"
		,"tardis:manual/chapters/controls/flight_controls13"
		,"tardis:manual/chapters/controls/flight_controls14"
		,"tardis:manual/chapters/controls/flight_controls15"
		,"tardis:manual/chapters/controls/flight_controls16"
		,"tardis:manual/chapters/controls/flight_controls17"
		,"tardis:manual/blank_page"
		,"tardis:manual/chapters/flight/flight"
		,"tardis:manual/chapters/flight/flight2"
		,"tardis:manual/chapters/flight/flight3"
		,"tardis:manual/chapters/flight/flight4"
		,"tardis:manual/chapters/flight/flight5"
		,"tardis:manual/chapters/flight/flight6"
		,"tardis:manual/chapters/flight/flight6a"
		,"tardis:manual/chapters/flight/flight7"
		,"tardis:manual/chapters/flight/flight8"
		,"tardis:manual/chapters/flight/flight9"
		,"tardis:manual/chapters/flight/flight10"
		,"tardis:manual/blank_page"
		,"tardis:manual/chapters/protocols/monitor_protocols"
		,"tardis:manual/chapters/protocols/monitor_protocols2"
		,"tardis:manual/chapters/protocols/monitor_protocols3"
		,"tardis:manual/chapters/protocols/monitor_protocols4"
		,"tardis:manual/chapters/protocols/monitor_protocols5"
		,"tardis:manual/chapters/protocols/monitor_protocols6"
		,"tardis:manual/chapters/protocols/monitor_protocols7"
		,"tardis:manual/chapters/protocols/monitor_protocols8"
		,"tardis:manual/chapters/protocols/monitor_protocols9"
		,"tardis:manual/blank_page"
		,"tardis:manual/chapters/events/event"
		,"tardis:manual/chapters/events/event_broken_timeship"
		,"tardis:manual/chapters/events/event_broken_timeship2"
		,"tardis:manual/chapters/events/event_broken_timeship3"
		,"tardis:manual/chapters/events/event_broken_timeship4"
		,"tardis:manual/chapters/events/event_broken_timeship5"
		,"tardis:manual/chapters/events/event_broken_timeship6"
	]
}